"","url","n"
"1","http://www.lejdc.fr/nievre/actualite/2013/03/07/insolite-un-harlem-shake-de-nevers-avec-des-peluches-1467740.html",74
"2","http://www.lepopulaire.fr/accueil/brightcove/2013/03/07/le-harlem-shake-des-basketteuses-de-feytiat-92209654972001.html",54
"3","http://www.jactiv.ouest-france.fr/sortir/multimedia/revue-decalee-web-harlem-shake-meilleur-pire-14849",48
"4","http://www.youtube.com/embed/4hpEnLtqUDg?rel=1&autoplay=0",48
"5","http://www.youtube.com/embed/fkNYFbAZA34?rel=1&autoplay=0",48
"6","http://www.youtube.com/embed/PwopeuXdtYs?rel=1&autoplay=0",48
"7","http://www.youtube.com/embed/QkNrSpqUr-E?rel=1&autoplay=0",48
"8","http://www.lamontagne.fr/accueil/brightcove/2013/03/07/le-harlem-shake-des-basketteuses-de-feytiat-92209654972001.html",40
"9","http://www.youtube.com/watch?v=6yx4M2ovBIk",39
"10","http://www.leberry.fr/accueil/brightcove/2013/03/05/l-ensi-de-bourges-fait-son-harlem-shake-92205274828001.html",36
"11","http://www.youtube.com/embed/f0unDHobMSc?rel=1&autoplay=0",35
"12","http://www.youtube.com/watch?v=uw6Va6hYKsg",35
"13","http://www.lejdc.fr/journal/vous-et-nous/temoignages.html",31
"14","http://www.youtube.com/embed/6yx4M2ovBIk",30
"15","http://www.youtube.com/embed/uw6Va6hYKsg",30
"16","http://player.vimeo.com/video/61651192",28
"17","http://www.leberry.fr/cher/actualite/2013/03/06/l-ensi-bourges-fait-son-harlem-shake-1466519.html",28
"18","http://www.youtube.com/embed/384IUU43bfQ",25
"19","http://www.leveil.fr/index.php/layout/set/print/Videos/Actualites/Les-Harlem-Shake-de-Haute-Loire-101654",23
"20","http://www.leveil.fr/Videos/Actualites/Les-Harlem-Shake-de-Haute-Loire-101654",23
"21","http://www.youtube.com/embed/384IUU43bfQ?feature=oembed",22
"22","http://www.youtube.com/watch?v=384IUU43bfQ",21
"23","http://www.youtube.com/watch?v=0IJoKuTlvuM",20
"24","http://baralblog.blogs.lest-eclair.fr/2013/03/22/game-coast-realise-son-propre-harlem-shake/",18
"25","http://www.slate.fr//story//68453//harlem-shake-enfer-entreprise",18
"26","http://www.youtube.com/embed/9qq2NSnPyzE",17
"27","http://www.youtube.com/embed/HTlHqAjfObY",17
"28","http://www.youtube.com/embed/KSDJJsvzpbY",17
"29","http://www.youtube.com/embed/ZhtEQY-_LJI",17
"30","http://baralblog.blogs.lest-eclair.fr/2013/03/22/game-coast-realise-son-propre-harlem-shake/feed/",16
"31","http://blog.slateafrique.com/tawa-fi-tunis/2013/02/25/tunisie-%e2%80%93-le-ministre-de-leducation-ne-danse-pas-le-harlem-shake/",16
"32","http://www.rue89lyon.fr/2013/02/26/nouveau-buzz-planetaire-harlem-shake-decline-sauce-lyonnaise/",16
"33","http://www.youtube.com/embed/4hpEnLtqUDg",16
"34","http://metroreporter.metrofrance.com/fr/photos/insolite/2013-03-16/16272/harlem-shake-geant.html",15
"35","http://www.larep.fr/accueil/brightcove/2013/02/20/harlem-shake-a-l-universite-92178215980001.html",15
"36","http://quoi.info/actualite-culture/2013/02/13/harlem-shake-youtube-video-phenomene-web-1160863/",14
"37","http://www.aujourdhui-en-france.fr/loisirs-et-spectacles/harlem-shake-fait-danser-le-net-21-02-2013-2586215.php",14
"38","http://www.aujourdhui-en-france.fr/tv/video-le-harlem-shake-des-simpsons-03-03-2013-2613089.php",14
"39","http://www.leberry.fr//cher//actualite//2013//03//08//les-jeunes-du-cher-se-sont-empares-du-phenomene-harlem-shake-1466534.html",14
"40","http://www.lepopulaire.fr//limousin//actualite//2013//02//18//le-phenomene-web-harlem-shake-arrive-a-limoges-1448108.html",14
"41","http://www.slate.fr//culture//68449//harlem-shake-vraie-danse",14
"42","http://www.youtube.com/embed/0IJoKuTlvuM?wmode=Opaque",14
"43","http://www.youtube.com/embed/4hpEnLtqUDg?wmode=Opaque",14
"44","http://www.youtube.com/watch?v=9qq2NSnPyzE",14
"45","http://www.youtube.com/watch?v=HTlHqAjfObY",14
"46","http://www.youtube.com/watch?v=ZhtEQY-_LJI",14
"47","http://www.aujourdhui-en-france.fr/sports/iledefrance/video-les-footballeurs-de-creteil-font-aussi-leur-harlem-shake-12-03-2013-2635579.php",13
"48","http://www.lamontagne.fr/accueil/brightcove/2013/02/21/harlem-shake-devant-la-fac-de-droit-de-clermont-ferrand-92179521505001.html",13
"49","http://www.lamontagne.fr/accueil/brightcove/2013/03/09/300-personnes-pour-un-harlem-shake-a-clermont-ferrand-92213973403001.html",13
"50","http://www.leberry.fr/accueil/brightcove/2013/04/12/un-harlem-shake-pour-feter-la-fin-de-radio-briss-on-air-92295264330001.html",13
"51","http://www.leberry.fr/cher/actualite/2013/03/04/le-phenomene-harlem-shake-arrive-dans-le-berry-1462815.html",13
"52","http://www.leparisien.fr/loisirs-et-spectacles/harlem-shake-fait-danser-le-net-21-02-2013-2586215.php",13
"53","http://www.leparisien.fr/sports/iledefrance/video-les-footballeurs-de-creteil-font-aussi-leur-harlem-shake-12-03-2013-2635579.php",13
"54","http://www.leparisien.fr/tv/video-le-harlem-shake-des-simpsons-03-03-2013-2613089.php",13
"55","http://www.youtube.com/embed/0IJoKuTlvuM",13
"56","http://www.youtube.com/embed/IybZC5p4Aqs?rel=0",13
"57","http://www.youtube.com/embed/zSQRXY-rp_M",13
"58","http://www.youtube.com/watch?v=4hpEnLtqUDg",13
"59","http://www.leberry.fr//cher//actualite//2013//03//16//le-cercle-jean-mace-bourges-basket-fait-son-harlem-shake-video-1479180.html",12
"60","http://www.midilibre.fr/2013/03/15/de-montpellier-a-perpignan-la-folie-harlem-shake-contamine-le-languedoc-roussillon,660122.php",12
"61","http://www.paris-normandie.fr//article//rouen//les-rouennais-se-mettent-au-harlem-shake",12
"62","http://www.rue89lyon.fr/2013/03/18/apres-lasse-le-lou-rugby-fait-aussi-son-harlem-shake/",12
"63","http://www.rue89lyon.fr/2013/03/18/apres-lasse-le-lou-rugby-fait-aussi-son-harlem-shake/feed/",12
"64","http://www.youtube.com/embed/-kHoySPul7c?rel=0",12
"65","http://www.youtube.com/embed/-Z8GhuBXryY?rel=0",12
"66","http://www.youtube.com/embed/3RHoA3JLwiE?rel=0",12
"67","http://www.youtube.com/embed/5csnyVHZxQM?rel=0",12
"68","http://www.youtube.com/embed/5G0Ed0ttsWA?rel=0",12
"69","http://www.youtube.com/embed/BAS0gMN6pTU?rel=0",12
"70","http://www.youtube.com/embed/BiXATRrMOz4?rel=0",12
"71","http://www.youtube.com/embed/i2LYA38xRC0?rel=0",12
"72","http://www.youtube.com/embed/RgYah0aLz4g?feature=oembed",12
"73","http://www.youtube.com/embed/s-FO3SAtMmE?rel=0",12
"74","http://www.youtube.com/embed/u8oQJt_wQEM?rel=0",12
"75","http://www.youtube.com/embed/VgtDRVG1FNs?rel=0",12
"76","http://blog.slateafrique.com/nouvelles-du-caire/2013/02/25/harlem-shake-une-danse-trop-subversive-pour-legypte/",11
"77","http://blog.slateafrique.com/tawa-fi-tunis/2013/02/25/tunisie-%e2%80%93-le-ministre-de-leducation-ne-danse-pas-le-harlem-shake/feed/",11
"78","http://www.estrepublicain.fr//videodiap//2013//03//31//doubs-le-harlem-shake-de-l-us-saint-hippolyte",11
"79","http://www.estrepublicain.fr/videodiap/2013/03/14/harlem-shake-a-nancy",11
"80","http://www.rue89lyon.fr/2013/03/04/le-harlem-shake-des-footballeurs-de-saint-etienne-ou-laffreux-retour-de-la-tecktonik/",11
"81","http://www.rue89lyon.fr/2013/03/04/le-harlem-shake-des-footballeurs-de-saint-etienne-ou-laffreux-retour-de-la-tecktonik/feed/",11
"82","http://www.youtube.com/embed/9DSrW_eJJy4",11
"83","http://www.youtube.com/embed/O1ekrrMlMx0?wmode=opaque",11
"84","http://www.youtube.com/embed/pU--SPoWoN4?rel=0",11
"85","http://www.youtube.com/embed/ZV0MowtgT0Y?rel=0",11
"86","http://www.youtube.com/watch?v=metoJjyFoP0",11
"87","http://www.youtube.com/watch?v=O1ekrrMlMx0",11
"88","http://blog.slateafrique.com/nouvelles-du-caire/2013/02/25/harlem-shake-une-danse-trop-subversive-pour-legypte/feed/",10
"89","http://video.fr.msn.com/watch/video/harlem-shake-en-vol-enquete-ouverte/13qtomow7",10
"90","http://video.fr.msn.com/watch/video/harlem-shake-en-vol-enquete-ouverte/13qtomow7?from=",10
"91","http://www.lamontagne.fr/auvergne/actualite/2013/03/09/300-personnes-pour-un-harlem-shake-a-clermont-ferrand-1470559.html",10
"92","http://www.lepopulaire.fr/limousin/actualite/2013/04/06/en-visite-a-limoges-harlem-desir-se-prononce-pour-un-referendum-sur-le-non-cumul-des-mandats-1504858.html",10
"93","http://www.leveil.fr/haute-loire/Haute-Loire-le-departement-pas-epargnee-par-la-mode-du-harlem-shake-102387",10
"94","http://www.leveil.fr/index.php/haute-loire/layout/set/print/Haute-Loire-le-departement-pas-epargnee-par-la-mode-du-harlem-shake-102387",10
"95","http://www.martinique.franceantilles.fr//actualite/societe/la-martinique-fait-son-harlem-shake-video-194329.php",10
"96","http://www.youtube.com/embed/E4EGoGAnvRA",10
"97","http://www.youtube.com/embed/EMPHDvh0ux4",10
"98","http://www.youtube.com/embed/zHgD1W0Y5oc",10
"99","http://www.youtube.com/watch?v=9Ca48QT8HDA",10
"100","http://www.youtube.com/watch?v=9DSrW_eJJy4",10
"101","http://www.youtube.com/watch?v=G7nwB8G6ZPk",10
"102","http://metroreporter.metrofrance.com/fr/photos/insolite/2013-03-02/16128/harlem-shake-a-toulouse.html",9
"103","http://www.atlantico.fr/pepites/harlem-desir-se-prononce-pour-referendum-moralisation-vie-politique-690778.html",9
"104","http://www.dailymotion.com/embed/video/xxr7dm",9
"105","http://www.dailymotion.com/video/xxr7dm_harlem-shake-de-la-jav_sport",9
"106","http://www.lamontagne.fr/auvergne/actualite/2013/02/21/l-universite-d-auvergne-sort-son-harlem-shake-making-of-1451881.html",9
"107","http://www.lamontagne.fr/limousin/2013/04/06/en-visite-a-limoges-harlem-desir-se-prononce-pour-un-referendum-sur-le-non-cumul-des-mandats-1504858.html",9
"108","http://www.leberry.fr/cher/actualite/2013/03/23/sexion-d-assaut-fera-un-harlem-shake-au-printemps-de-bourges-1488511.html",9
"109","http://www.leprogres.fr/loire/2013/03/30/la-jeunesse-stephanoise-reunie-autour-d-un-harlem-shake-geant",9
"110","http://www.leprogres.fr/sports/2013/02/26/les-basketteurs-de-vichy",9
"111","http://www.youtube.com/embed/9Ca48QT8HDA",9
"112","http://www.youtube.com/embed/G7nwB8G6ZPk",9
"113","http://www.youtube.com/watch?v=5G0Ed0ttsWA",9
"114","http://www.youtube.com/watch?v=BiXATRrMOz4",9
"115","http://www.youtube.com/watch?v=E4EGoGAnvRA",9
"116","http://www.youtube.com/watch?v=EMPHDvh0ux4",9
"117","http://www.youtube.com/watch?v=VgtDRVG1FNs",9
"118","http://www.youtube.com/watch?v=zHgD1W0Y5oc",9
"119","http://videoblog.blogs.lavoixdunord.fr/archive/2013/02/18/le-harlem-shake-a-la-sauce-nba-all-star-game.html",8
"120","http://videoblog.blogs.lavoixdunord.fr/archive/2013/02/23/flash-mob-et-harlem-shake.html",8
"121","http://videoblog.blogs.lavoixdunord.fr/archive/2013/03/20/le-harlem-shake-lensois-apres-la-victoire-face-a-auxerre.html",8
"122","http://www.aujourdhui-en-france.fr/sports/iledefrance/basket-video-nanterre-fete-sa-qualification-pour-la-finale-de-coupe-de-france-en-dansant-le-harlem-shake-10-04-2013-2714569.php",8
"123","http://www.bienpublic.com/actualite/2013/03/03/les-jeunes-ump-de-la-premiere-circonscription-de-paris",8
"124","http://www.ecrans.fr/forums/viewtopic.php?id=15020",8
"125","http://www.ecrans.fr/Harlem-Shake-appel-aux-secousses,16033.html",8
"126","http://www.ecrans.fr/spip.php?page=imprimer&id_article=16033",8
"127","http://www.estrepublicain.fr/actualite/2013/02/24/trente-secondes-de-folie-avec-le-harlem-shake",8
"128","http://www.leberry.fr/cher/actualite/pays/pays-de-vierzon/2013/04/12/un-harlem-shake-pour-feter-la-fin-de-radio-briss-on-air-1513921.html",8
"129","http://www.leberry.fr/france-monde/actualites/societe/insolite.html",8
"130","http://www.lejsl.com//sport-local//2013//03//07//un-harlem-shake-signe-des-rugbymens-maconnais",8
"131","http://www.leparisien.fr/sports/iledefrance/basket-video-nanterre-fete-sa-qualification-pour-la-finale-de-coupe-de-france-en-dansant-le-harlem-shake-10-04-2013-2714569.php",8
"132","http://www.lepopulaire.fr//limousin//sports//actualite//rugby//2013//03//01//le-ca-brive-sort-son-harlem-shake-1461003.html",8
"133","http://www.paris-normandie.fr//actu//lem-de-normandie-fait-le-buzz-sur-internet-avec-le-harlem-shake",8
"134","http://www.slateafrique.com//104039//les-freres-musulmans-ne-dansent-pas-le-harlem-shake",8
"135","http://www.youtube.com/embed/8k2aFWMDF68",8
"136","http://www.youtube.com/embed/COG1FeINEsA",8
"137","http://www.youtube.com/embed/eTXV4AdZ-dE",8
"138","http://www.youtube.com/embed/PUreyJJAaCI?wmode=opaque",8
"139","http://www.youtube.com/watch?v=-kHoySPul7c",8
"140","http://www.youtube.com/watch?v=-Z8GhuBXryY",8
"141","http://www.youtube.com/watch?v=3RHoA3JLwiE",8
"142","http://www.youtube.com/watch?v=5csnyVHZxQM",8
"143","http://www.youtube.com/watch?v=BAS0gMN6pTU",8
"144","http://www.youtube.com/watch?v=COG1FeINEsA",8
"145","http://www.youtube.com/watch?v=i2LYA38xRC0",8
"146","http://www.youtube.com/watch?v=KSDJJsvzpbY",8
"147","http://www.youtube.com/watch?v=pU--SPoWoN4",8
"148","http://www.youtube.com/watch?v=PUreyJJAaCI",8
"149","http://www.youtube.com/watch?v=s-FO3SAtMmE",8
"150","http://www.youtube.com/watch?v=u8oQJt_wQEM",8
"151","http://www.youtube.com/watch?v=ZV0MowtgT0Y",8
"152","http://www.arretsurimages.net/contenu.php?id=5649",7
"153","http://www.atlantico.fr/atlantico-light/harlem-shake-danse-degenere-en-bagarre-dans-ain-663774.html",7
"154","http://www.dailymotion.com/embed/video/xxvz2y",7
"155","http://www.dailymotion.com/embed/video/xy1236",7
"156","http://www.dailymotion.com/video/xy1236_harlem-shake-de-l-asm-clermont-auvergne_sport",7
"157","http://www.estrepublicain.fr/videodiap/2013/02/24/un-harlem-shake-made-in-franche",7
"158","http://www.lejdd.fr/Politique/Videos/Le-Harlem-Shake-des-jeunes-UMP-594693",7
"159","http://www.lesinrocks.com/2013/03/04/medias/harlem-shake-en-bois-11367510/",7
"160","http://www.letelegramme.com/ig/loisirs/multimedia/internet-le-phenomene-harlem-shake-atteint-l-ump-04-03-2013-2024824.php",7
"161","http://www.youtube.com/embed/8JkUCTCvWFA",7
"162","http://www.youtube.com/embed/EJHc26iM7jg",7
"163","http://www.youtube.com/embed/Fx31J94ULR8",7
"164","http://www.youtube.com/embed/G1qoZxWAsk8",7
"165","http://www.youtube.com/embed/hPV46wWpZDk",7
"166","http://www.youtube.com/embed/j4qqIBPHWYU",7
"167","http://www.youtube.com/embed/pE1d8P62OZU",7
"168","http://www.youtube.com/embed/xG6p0z_W2Bo",7
"169","http://www.youtube.com/watch?v=EJHc26iM7jg",7
"170","http://www.youtube.com/watch?v=j4qqIBPHWYU",7
"171","http://www.youtube.com/watch?v=nGzkgOL7pkY",7
"172","http://www.youtube.com/watch?v=pE1d8P62OZU",7
"173","http://www.youtube.com/watch?v=tfNGtqaJsJk",7
"174","http://videoblog.blogs.lavoixdunord.fr/archive/2013/03/06/quand-le-lille-metropole-natation-se-met-au-harlem-shake.html",6
"175","http://www.aujourdhui-en-france.fr/actualite-people-medias/videos-quand-le-harlem-shake-va-trop-loin-01-03-2013-2608947.php",6
"176","http://www.aujourdhui-en-france.fr/politique/l-ump-se-met-au-harlem-shake-04-03-2013-2615607.php",6
"177","http://www.dailymotion.com/video/xxvz2y_subjectif-terre-episode-12-harlem-shake-caritatif-chasse-au-cannabis-et-cambriolage-pornographique_news",6
"178","http://www.huffingtonpost.fr//2013//02//11//harlem-shake-video-phenomene-origine-youtube_n_2663257.html?utm_hp_ref=mostpopular",6
"179","http://www.lamontagne.fr/auvergne/sports/actualite/rugby/2013/03/07/l-asm-clermont-auvergne-a-aussi-fait-son-harlem-shake-1468025.html",6
"180","http://www.lamontagne.fr/france-monde/actualites/societe/insolite.html",6
"181","http://www.larep.fr//loiret//actualite//2013//02//20//gigantesque-harlem-shake-a-l-universite-1450633.html",6
"182","http://www.leberry.fr/cher/actualite/2013/03/04/le-phenomene-harlem-shake-arrive-dans-le-berry-1462815-commentaire.html",6
"183","http://www.leberry.fr/cher/actualite/pays/bourges-et-environ/2013/03/07/entre-70-et-80-personnes-pour-un-harlem-shake-demain-soir-au-trois-p-tits-cochons-1467876.html",6
"184","http://www.lejdc.fr//nievre//actualite//2013//03//08//harlem-shake-au-magasin-platinium-de-nevers-1467938.html",6
"185","http://www.lejdc.fr//nievre//actualite//2013//03//19//les-harlem-shake-secouent-la-ville-1482121.html",6
"186","http://www.leparisien.fr/politique/l-ump-se-met-au-harlem-shake-04-03-2013-2615607.php",6
"187","http://www.lepopulaire.fr/accueil/brightcove/2013/03/07/le-harlem-shake-des-basketteuses-de-feytiat-92208451762001.html",6
"188","http://www.midilibre.fr/2013/03/12/sete-le-harlem-shake-des-joueurs-de-l-arago,658495.php",6
"189","http://www.rue89lyon.fr/2013/02/26/nouveau-buzz-planetaire-harlem-shake-decline-sauce-lyonnaise/feed/",6
"190","http://www.slate.fr//lien//70071//harlem-shake",6
"191","http://www.youtube.com/embed/5OhqUFgPqJE",6
"192","http://www.youtube.com/embed/AddGCZvkOxM?feature=player_detailpage",6
"193","http://www.youtube.com/embed/jiTEET_ZerA",6
"194","http://www.youtube.com/embed/KSDJJsvzpbY?feature=oembed",6
"195","http://www.youtube.com/embed/metoJjyFoP0",6
"196","http://www.youtube.com/embed/nGzkgOL7pkY",6
"197","http://www.youtube.com/embed/tAhJFs2QPcE",6
"198","http://www.youtube.com/embed/tfNGtqaJsJk",6
"199","http://www.youtube.com/embed/VZsYnTlE478",6
"200","http://www.youtube.com/embed/w4i3iZ7uNss?wmode=opaque&wmode=opaque",6
"201","http://www.youtube.com/embed/XFGpFp4doA0",6
"202","http://www.youtube.com/watch?v=5OhqUFgPqJE",6
"203","http://www.youtube.com/watch?v=Fx31J94ULR8",6
"204","http://www.youtube.com/watch?v=hPV46wWpZDk",6
"205","http://www.youtube.com/watch?v=Ixo5iH-R810",6
"206","http://www.youtube.com/watch?v=jiTEET_ZerA",6
"207","http://www.youtube.com/watch?v=tAhJFs2QPcE",6
"208","http://www.youtube.com/watch?v=VZsYnTlE478",6
"209","http://www.youtube.com/watch?v=XFGpFp4doA0",6
"210","http://divertissements.fr.msn.com/musique/le-top-10-des-harlem-shake-les-plus-fous",5
"211","http://leplus.nouvelobs.com/contribution/783624-videos-the-harlem-shake-derriere-l-absurde-un-appel-a-la-revolution.html",5
"212","http://next.liberation.fr/musique/2013/02/18/le-harlem-shake-a-deja-fait-plus-de-44-millions-de-victimes_882612",5
"213","http://player.vimeo.com/video/60249653",5
"214","http://www.24matins.fr/quand-la-publicite-sempare-du-harlem-shake-37099",5
"215","http://www.huffingtonpost.fr/2013/02/11/harlem-shake-video-phenomene-origine-youtube_n_2663257.html",5
"216","http://www.leberry.fr/cher/actualite/pays/pays-de-vierzon/2013/03/07/le-vierzon-foot-fait-son-harlem-shake-video-1467877.html",5
"217","http://www.leprogres.fr//rhone//2013//02//20//un-harlem-shake-pour-les-etudiants-en-medecine-de-lyon-sud",5
"218","http://www.leprogres.fr/sports/2013/03/06/harlem-shake-quand-l-ol-veut-imiter-l-asse-mais-en-mieux",5
"219","http://www.midilibre.fr/2013/02/22/le-phenomene-harlem-shake-debarque-a-sup-de-co-a-montpellier,648992.php",5
"220","http://www.midilibre.fr/2013/02/22/mandroux-demande-l-investiture-a-desir,648927.php",5
"221","http://www.midilibre.fr/2013/03/06/sur-internet-beziers-succombe-a-la-mode-du-harlem-shake,655233.php",5
"222","http://www.youtube.com/embed/-kHoySPul7c",5
"223","http://www.youtube.com/embed/1F2gCMTJQJQ",5
"224","http://www.youtube.com/embed/52U7G4t0r6g",5
"225","http://www.youtube.com/embed/8QUbavrDq38",5
"226","http://www.youtube.com/embed/AuhOBKIJlSE",5
"227","http://www.youtube.com/embed/BiXATRrMOz4",5
"228","http://www.youtube.com/embed/Jgvp1wZx7II",5
"229","http://www.youtube.com/embed/metoJjyFoP0?wmode=opaque",5
"230","http://www.youtube.com/embed/sOqZ-QD75sQ",5
"231","http://www.youtube.com/embed/XEaPkFOQgQc",5
"232","http://www.youtube.com/embed/Zg55JR990tc",5
"233","http://www.youtube.com/watch?v=1F2gCMTJQJQ",5
"234","http://www.youtube.com/watch?v=52U7G4t0r6g",5
"235","http://www.youtube.com/watch?v=8k2aFWMDF68",5
"236","http://www.youtube.com/watch?v=eTXV4AdZ-dE",5
"237","http://www.youtube.com/watch?v=G1qoZxWAsk8",5
"238","http://www.youtube.com/watch?v=Jgvp1wZx7II",5
"239","http://www.youtube.com/watch?v=W52rnrwG9p0",5
"240","http://www.youtube.com/watch?v=Zg55JR990tc",5
"241","https://www.youtube.com/embed/UVJXLold1Ro",5
"242","https://www.youtube.com/watch?v=UVJXLold1Ro",5
"243","http://lapressealecole.blogs.lest-eclair.fr/2013/04/17/le-%c2%ab-harlem-shake-%c2%bb/",4
"244","http://lapressealecole.blogs.lest-eclair.fr/2013/04/17/le-%c2%ab-harlem-shake-%c2%bb/feed/",4
"245","http://mobile.lemonde.fr/international/video/2013/03/01/subjectif-terre-episode-12-harlem-shake-caritatif-chasse-au-cannabis-et-cambriolage-pornographique_1841653_3210.html",4
"246","http://mobile.lepoint.fr/insolite/un-harlem-shake-a-l-accent-nippon-au-sanctuaire-et-au-bain-public-14-04-2013-1654847_48.php",4
"247","http://www.atlantico.fr//pepitesvideo//harlem-shake-meme-jeunes-ump-mettent-657591.html",4
"248","http://www.aujourdhui-en-france.fr/international/egypte-ils-defient-le-pouvoir-en-dansant-le-harlem-shake-28-02-2013-2606559.php",4
"249","http://www.aujourdhui-en-france.fr/sports/video-les-verts-de-saint-etienne-font-leur-harlem-shake-05-03-2013-2618269.php",4
"250","http://www.ecrans.fr/forums/extern.php?action=feed&tid=15020&type=atom",4
"251","http://www.huffingtonpost.fr//2013//02//19//harlem-shake-hockey-equipe-forfait-victime-video_n_2715194.html?utm_hp_ref=mostpopular",4
"252","http://www.ladepeche.pf/article/societe/le-harlem-shake-de-l%E2%80%99ect-fait-le-buzz-sur-youtube",4
"253","http://www.lamontagne.fr/limousin/actualite/departement/correze/brive/2013/03/04/apres-le-harlem-shake-des-brivistes-participent-a-la-mojo-dance-1464019.html",4
"254","http://www.leberry.fr/dossiers.html",4
"255","http://www.lejdc.fr//nievre//actualite//pays//val-de-loire//2013//03//07//un-harlem-shake-au-bar-le-nivernais-a-cosne-1467897.html",4
"256","http://www.lejdc.fr/france-monde/actualites/societe/insolite.html",4
"257","http://www.lejsl.com//edition-de-chalon//2013//03//29//tournus-le-harlem-shake-des-lyceens",4
"258","http://www.lejsl.com//pays-charolais//2013//03//29//un-harlem-shake-pour-les-100-jours-du-bac-au-lycee-julien-wittmer",4
"259","http://www.lemainelibre.fr//actualite//le-mans-le-phenomene-harlem-shake-debarque-le-23-mars-video-09-03-2013-54273",4
"260","http://www.lemainelibre.fr//actualite//sable-les-joueurs-du-sable-fc-succombent-a-la-folie-harlem-shake-21-03-2013-55108",4
"261","http://www.lemonde.fr/international/video/2013/03/01/subjectif-terre-episode-12-harlem-shake-caritatif-chasse-au-cannabis-et-cambriolage-pornographique_1841653_3210.html",4
"262","http://www.leparisien.fr/actualite-people-medias/videos-quand-le-harlem-shake-va-trop-loin-01-03-2013-2608947.php",4
"263","http://www.lepoint.fr/insolite/des-gueules-noires-licenciees-pour-un-harlem-shake-au-fond-de-la-mine-04-03-2013-1635655_48.php",4
"264","http://www.lepoint.fr/insolite/un-harlem-shake-a-l-accent-nippon-au-sanctuaire-et-au-bain-public-14-04-2013-1654847_48.php",4
"265","http://www.lepopulaire.fr/limousin/actualite/departement/haute-vienne/2013/03/07/le-harlem-shake-des-basketteuses-de-feytiat-1467820.html",4
"266","http://www.lepopulaire.fr/limousin/actualite/departement/haute-vienne/2013/04/04/harlem-desir-dement-un-eventuel-remaniement-ministeriel-1503051.html",4
"267","http://www.leveil.fr/index.php/layout/set/print/Videos/Actualites/Les-Harlem-Shake-de-Haute-Loire-101654/(imgIdv)/54021",4
"268","http://www.leveil.fr/Videos/Actualites/Les-Harlem-Shake-de-Haute-Loire-101654/(imgIdv)/54021",4
"269","http://www.liberation.fr/monde/2013/02/27/le-ton-monte-autour-du-harlem-shake-a-tunis_885080",4
"270","http://www.lyonne.fr//yonne//actualite//2013//04//29//harlem-shake-chez-un-concessionnaire-d-auxerre-1534218.html",4
"271","http://www.lyonne.fr//yonne//actualite//pays//senonais//2013//03//27//une-grande-surface-s-offre-un-harlem-shake-1493536.html",4
"272","http://www.midilibre.fr/2013/03/15/c-est-le-bronx-petit-panorama-des-harlem-shake-bagnolais,660267.php",4
"273","http://www.midilibre.fr/2013/03/15/les-freres-harang-lancent-eux-aussi-leur-harlem-shake,660432.php",4
"274","http://www.midilibre.fr/2013/03/25/les-seniors-de-marsillargues-font-leur-harlem-shake,666301.php",4
"275","http://www.rue89.com/zapnet/2013/03/02/enquete-de-la-securite-aerienne-us-sur-un-harlem-shake-dans-un-avion-240175",4
"276","http://www.slateafrique.com/taxonomy/term/32505",4
"277","http://www.youtube.com/embed/-8U1zC4aK3U",4
"278","http://www.youtube.com/embed/0_tIvbYij-8",4
"279","http://www.youtube.com/embed/3qzD0SQ6ZxI",4
"280","http://www.youtube.com/embed/3WHxv6rzsoY",4
"281","http://www.youtube.com/embed/5O6XKty_JCc",4
"282","http://www.youtube.com/embed/5xHwk7qynCA",4
"283","http://www.youtube.com/embed/dmwbNRe8B2Q",4
"284","http://www.youtube.com/embed/GoL56RthMW0",4
"285","http://www.youtube.com/embed/Ixo5iH-R810",4
"286","http://www.youtube.com/embed/mtPiLKsJ3Ws",4
"287","http://www.youtube.com/embed/QkNrSpqUr-E",4
"288","http://www.youtube.com/embed/QMjK0nmwzKU",4
"289","http://www.youtube.com/embed/YM1AEx99vPY",4
"290","http://www.youtube.com/embed/yZhZAyUpiRg",4
"291","http://www.youtube.com/watch?v=3qzD0SQ6ZxI",4
"292","http://www.youtube.com/watch?v=3WHxv6rzsoY",4
"293","http://www.youtube.com/watch?v=8JkUCTCvWFA",4
"294","http://www.youtube.com/watch?v=GoL56RthMW0",4
"295","http://www.youtube.com/watch?v=QkNrSpqUr-E",4
"296","http://www.youtube.com/watch?v=xbuV-WNgOKo",4
"297","http://www.youtube.com/watch?v=xG6p0z_W2Bo",4
"298","http://www.youtube.com/watch?v=YM1AEx99vPY",4
"299","http://bigbrowser.blog.lemonde.fr/2013/03/02/subjectif-terre-harlem-shake-caritatif-chasse-au-cannabis-et-cambriolage-pornographique/",3
"300","http://bigbrowser.blog.lemonde.fr/2013/03/02/subjectif-terre-harlem-shake-caritatif-chasse-au-cannabis-et-cambriolage-pornographique/feed/",3
"301","http://blogs.mediapart.fr/blog/rachid-barbouch/220213/maroc-du-harlem-shake-contre-le-stress-des-classes-preparatoires",3
"302","http://leplus.nouvelobs.com/contribution/793245-harlem-shake-en-tunisie-face-a-ennahda-la-jeunesse-danse-la-revolution.html",3
"303","http://m.nicematin.com/nice/videos-la-contagion-du-harlem-shake-atteint-nice-et-la-cote-dazur.1162326.html",3
"304","http://www.24matins.fr/harlem-shake-le-nouveau-buzz-qui-secoue-la-toile-35040",3
"305","http://www.arretsurimages.net/vite.php?id=15215",3
"306","http://www.aujourdhui-en-france.fr/insolite/un-harlem-shake-a-l-accent-nippon-au-sanctuaire-et-au-bain-public-14-04-2013-2725129.php",3
"307","http://www.courrier-picard.fr/courrier/Actualites/Insolite/Des-gueules-noires-licenciees-pour-un-Harlem-Shake-au-fond-de-la-mine",3
"308","http://www.directmatin.fr/insolite/2013-02-22/les-meilleures-versions-du-harlem-shake-397696",3
"309","http://www.estrepublicain.fr//videodiap//2013//04//13//vesoul-le-harlem-shake-du-club-de-poker",3
"310","http://www.estrepublicain.fr/actualite/2013/02/21/harlem-shake",3
"311","http://www.huffingtonpost.fr/2013/02/19/harlem-shake-hockey-equipe-forfait-victime-video_n_2715194.html",3
"312","http://www.huffingtonpost.fr/2013/03/02/harlem-shake-simpson_n_2800095.html?utm_hp_ref=france",3
"313","http://www.huffingtonpost.fr/2013/03/03/video-harlem-shake-ump_n_2800212.html?utm_hp_ref=france",3
"314","http://www.ladepeche.pf/actu/le-%C2%AB-harlem-shake-%C2%BB-de-l%E2%80%99ect-a-fait-le-tour-du-monde-en-une-semaine",3
"315","http://www.lamontagne.fr/auvergne/actualite/2013/03/09/300-personnes-pour-un-harlem-shake-a-clermont-ferrand-1470559-commentaire.html",3
"316","http://www.leberry.fr/cher/actualite/2013/03/08/les-jeunes-du-cher-se-sont-empares-du-phenomene-harlem-shake-1466534-commentaire.html",3
"317","http://www.leberry.fr/cher/actualite/departement/reportages-photos.html",3
"318","http://www.ledauphine.com//haute-savoie//2013//02//20//les-etudiants-de-l-iae-savoie-mont-blanc-se-mettent-au-harlem-shake",3
"319","http://www.ledauphine.com//isere-sud//2013//02//18//la-folie-harlem-shake-arrive-a-grenoble",3
"320","http://www.lejdc.fr/zone/bourgogne/saone-et-loire/71400/autun.html",3
"321","http://www.leparisien.fr/insolite/un-harlem-shake-a-l-accent-nippon-au-sanctuaire-et-au-bain-public-14-04-2013-2725129.php",3
"322","http://www.leparisien.fr/international/egypte-ils-defient-le-pouvoir-en-dansant-le-harlem-shake-28-02-2013-2606559.php",3
"323","http://www.leparisien.fr/sports/video-les-verts-de-saint-etienne-font-leur-harlem-shake-05-03-2013-2618269.php",3
"324","http://www.lepopulaire.fr/limousin/actualite/2013/04/06/en-visite-a-limoges-harlem-desir-se-prononce-pour-un-referendum-sur-le-non-cumul-des-mandats-1504858-commentaire.html",3
"325","http://www.lepopulaire.fr/limousin/actualite/departement/haute-vienne/2013/04/02/harlem-desir-a-limoges-vendredi-1500221.html",3
"326","http://www.leprogres.fr//football//2013//03//05//asse-le-vestiaire-vert-gagne-par-le-harlem-shake",3
"327","http://www.lesinrocks.com/2013/02/14/musique/azealia-banks-nouveau-titre-en-ecoute-11360833/",3
"328","http://www.letelegramme.com/tag/Harlem%20Shake",3
"329","http://www.liberation.fr/monde/2013/03/01/en-tunisie-le-harlem-shake-secoue-la-polemique_885485",3
"330","http://www.liberation.fr/politiques/2013/03/04/l-ump-rate-son-harlem-shake_886114",3
"331","http://www.linternaute.com/actualite/politique/harlem-shake-le-nouveau-lipdub-desopilant-de-l-ump-0313.shtml",3
"332","http://www.lunion.presse.fr/diaporama/harlem-shake-place-ducale-a-charleville-mezieres",3
"333","http://www.metrofrance.com/sport/en-video-le-harlem-shake-signe-lebron-james/mmca!pvuo3JsuQqmxo/",3
"334","http://www.midilibre.fr/2013/04/05/des-militaires-belges-en-string-dansent-le-harlem-shake,673172.php",3
"335","http://www.nicematin.com/nice/videos-la-contagion-du-harlem-shake-atteint-nice-et-la-cote-dazur.1162326.html",3
"336","http://www.numerama.com/magazine/25354-harlem-shake-est-ne-dans-le-piratage.html",3
"337","http://www.paris-normandie.fr/media/imagecache/article-miniature-1/protec/2013-04/2013-04-01/201304015158d55790eb3-0-541540.jpg",3
"338","http://www.youtube.com/embed/6cRnsgmPixM?wmode=opaque",3
"339","http://www.youtube.com/embed/ButoWmy-Bd0",3
"340","http://www.youtube.com/embed/fZh0zehiih4",3
"341","http://www.youtube.com/embed/IE6BGwy0AU8",3
"342","http://www.youtube.com/embed/j7-lGJ0yq9k",3
"343","http://www.youtube.com/embed/K04bU-9i8s4",3
"344","http://www.youtube.com/embed/n7ujMBEnojk",3
"345","http://www.youtube.com/embed/NgCeW8rhHn0?rel=0",3
"346","http://www.youtube.com/embed/R5viGE-lTLU?rel=0",3
"347","http://www.youtube.com/embed/W52rnrwG9p0",3
"348","http://www.youtube.com/embed/W52rnrwG9p0?feature=player_embedded",3
"349","http://www.youtube.com/embed/WwmwBXZeL1M",3
"350","http://www.youtube.com/embed/X5UO3u1YCGI",3
"351","http://www.youtube.com/embed/zcZlghcFhFg",3
"352","http://www.youtube.com/watch?v=_aXTB67W8W8",3
"353","http://www.youtube.com/watch?v=-8U1zC4aK3U",3
"354","http://www.youtube.com/watch?v=0_tIvbYij-8",3
"355","http://www.youtube.com/watch?v=5O6XKty_JCc",3
"356","http://www.youtube.com/watch?v=5xHwk7qynCA",3
"357","http://www.youtube.com/watch?v=6cRnsgmPixM",3
"358","http://www.youtube.com/watch?v=ButoWmy-Bd0",3
"359","http://www.youtube.com/watch?v=IE6BGwy0AU8",3
"360","http://www.youtube.com/watch?v=j7-lGJ0yq9k",3
"361","http://www.youtube.com/watch?v=K04bU-9i8s4",3
"362","http://www.youtube.com/watch?v=n7ujMBEnojk",3
"363","http://www.youtube.com/watch?v=R5viGE-lTLU",3
"364","http://www.youtube.com/watch?v=zcZlghcFhFg",3
"365","http://actu.orange.fr//france//en-prison-pour-un-harlem-shake-sipa-media_1373486.html",2
"366","http://blogs.mediapart.fr/blog/rosa-deluxe/020313/qui-voit-venir-le-harlem-shake",2
"367","http://etudiant.lefigaro.fr/vie-etudiante/news/detail/article/apres-le-harlem-shake-le-hallway-swimming-1710/",2
"368","http://fr.news.yahoo.com//gueules-noires-licenci%c3%a9es-harlem-shake-au-fond-mine-085500316.html",2
"369","http://fr.news.yahoo.com//harlem-shake-derni%c3%a8re-danse-virale-092600992.html",2
"370","http://fr.news.yahoo.com//harlem-shake-joueurs-saint-etienne-retournent-vestiaire-090030066--spt.html",2
"371","http://fr.news.yahoo.com//touche-%c3%a0-poste-fait-harlem-shake-g%c3%a9ant-091100545.html",2
"372","http://fr.news.yahoo.com//video-harlem-shake-%c3%a7a-devient-nimporte-095316688.html",2
"373","http://fr.pourelles.yahoo.com//video//apr-le-gangnam-style-voici-105900028.html",2
"374","http://fr.pourelles.yahoo.com//video//apr-le-gangnam-style-voici-105900028.html?format=embed&player_autoplay=false",2
"375","http://fr.pourelles.yahoo.com/video/apr-le-gangnam-style-voici-105900028.html?format=embed&player_autoplay=true",2
"376","http://lapressealecole.blogs.lest-eclair.fr/2013/04/09/le-harlem-shake-du-delire-a-la-protestation/",2
"377","http://lapressealecole.blogs.lest-eclair.fr/2013/04/09/le-harlem-shake-du-delire-a-la-protestation/feed/",2
"378","http://screen.yahoo.com//mess-harlem-shake-153000513.html",2
"379","http://tempsreel.nouvelobs.com/monde/20130301.OBS0540/egypte-tunisie-les-danseurs-de-harlem-shake-defient-les-autorites.html",2
"380","http://www.24matins.fr//harlem-shake-un-buzz-qui-peut-avoir-des-consequences-36306",2
"381","http://www.24matins.fr//le-harlem-shake-pret-a-detrone-psy-avec-pres-de-44-millions-de-victimes-35353",2
"382","http://www.agoravox.fr//actualites//societe//article//harlem-shake-du-delire-a-la-131645",2
"383","http://www.atlantico.fr//decryptage//meme-armee-norvegienne-met-apres-gangnam-style-harlem-shake-641205.html",2
"384","http://www.atlantico.fr//pepitesvideo//apres-gangnam-style-et-one-pound-fish-voici-harlem-shake-638303.html",2
"385","http://www.atlantico.fr//pepitesvideo//harlem-shake-croix-rouge-654230.html",2
"386","http://www.atlantico.fr//pepitesvideo//harlem-shake-est-pas-au-gout-harlem-645467.html",2
"387","http://www.aujourdhui-en-france.fr/reactions/actualite-people-medias/videos-quand-le-harlem-shake-va-trop-loin-01-03-2013-2608947.php",2
"388","http://www.charentelibre.fr/2013/02/18/apres-le-gangnam-style-le-hrlem-shake-debarque-a-angouleme,1140124.php",2
"389","http://www.charentelibre.fr/2013/03/02/angouleme-le-harlem-shake-s-empare-des-jeunes-angoumoisins-video,1142146.php",2
"390","http://www.clicanoo.re/360255-un-millier-de-jeunes-reunis-pour-un-harlem-shake-a-boucan-canot.html",2
"391","http://www.dailymotion.com/embed/video/k5Ksj1ElzOhEvH3QP0c",2
"392","http://www.dailymotion.com/embed/video/xy7efn",2
"393","http://www.huffingtonpost.fr//2013//02//20//harlem-shake-video-harlem_n_2725390.html?utm_hp_ref=mostpopular",2
"394","http://www.huffingtonpost.fr//2013//03//02//harlem-shake-simpson_n_2800095.html?utm_hp_ref=mostpopular",2
"395","http://www.huffingtonpost.fr/2013/03/02/harlem-shake-simpson_n_2800095.html",2
"396","http://www.huffingtonpost.fr/2013/03/03/video-harlem-shake-ump_n_2800212.html",2
"397","http://www.huffingtonpost.fr/eric-azan/harlem-shake-tunisie_b_2853031.html",2
"398","http://www.huffingtonpost.fr/eric-azan/harlem-shake-tunisie_b_2853031.html?utm_hp_ref=france",2
"399","http://www.humanite.fr//monde//videos-les-harlem-shake-defient-la-censure-dans-le-516652",2
"400","http://www.ladepeche.fr/article/2013/02/27/1570946-harlem-shake-place-du-capitole.html",2
"401","http://www.ladepeche.fr/article/2013/03/02/1573302-1-000-personnes-harlem-shakent-au-capitole.html",2
"402","http://www.ladepeche.pf/actu/campagne-anti-filariose-papeete-mise-sur-un-harlem-shake-pour-faire-passer-le-message",2
"403","http://www.lamontagne.fr//auvergne//actualite//2013//02//26//le-harlem-shake-se-propage-aussi-en-auvergne-1457446.html",2
"404","http://www.lamontagne.fr//limousin//actualite//2013//03//01//le-ca-brive-sort-son-harlem-shake-1461003.html",2
"405","http://www.lamontagne.fr/france-monde/actualites/a-la-une/international.html",2
"406","http://www.lamontagne.fr/limousin/2013/04/06/en-visite-a-limoges-harlem-desir-se-prononce-pour-un-referendum-sur-le-non-cumul-des-mandats-1504858-commentaire.html",2
"407","http://www.larep.fr//france-monde//actualites//2013//03//23//sexion-d-assaut-fera-un-harlem-shake-au-printemps-de-bourges-1488511.html",2
"408","http://www.larep.fr//loiret//actualite//2013//03//03//le-harlem-shake-des-etudiants-de-sport-fait-le-buzz-1462794.html",2
"409","http://www.larep.fr//loiret//actualite//pays//gatinais//montargis//2013//03//18//l-us-chalette-fait-son-harlem-shake-1481141.html",2
"410","http://www.larep.fr/france-monde/actualites/a-la-une/international.html",2
"411","http://www.larep.fr/loiret/actualite/pays/orleans-metropole/saint-jean-de-braye/2013/03/08/les-u11-de-la-smoc-football-font-leur-harlem-shake-video-1469150.html",2
"412","http://www.lavoixdunord.fr//culture-loisirs//le-harlem-shake-le-nouveau-buzz-qui-affole-l-internet-ia0b0n1036693",2
"413","http://www.lavoixdunord.fr//region//calais-des-lyceens-de-leonard-de-vinci-se-mettent-au-ia33b0n1084283",2
"414","http://www.lavoixdunord.fr/region/a-arras-le-harlem-shake-reunit-plusieurs-centaines-de-ia29b0n1066370",2
"415","http://www.leberry.fr/cher/actualite/pays/bourges-et-environ.html",2
"416","http://www.leberry.fr/france-monde/actualites/a-la-une/international.html",2
"417","http://www.ledauphine.com//savoie//2013//03//06//val-thorens-voici-le-harlem-shake-le-plus-haut-d-europe",2
"418","http://www.ledauphine.com//sport//2013//03//01//le-harlem-shake-des-phenix-de-reims",2
"419","http://www.ledauphine.com/isere-sud/2013/04/20/un-harlem-shake-pour-que-arthaud-bouge-encore",2
"420","http://www.ledauphine.com/skichrono/2013/03/06/la-wunderteam-p",2
"421","http://www.ledauphine.com/vaucluse/2013/03/14/handball-dans-la-vague-du-harlem-shake-a-orange",2
"422","http://www.lejdc.fr/france-monde/actualites/a-la-une/international.html",2
"423","http://www.leparisien.fr/reactions/actualite-people-medias/videos-quand-le-harlem-shake-va-trop-loin-01-03-2013-2608947.php",2
"424","http://www.lepoint.fr/monde/tunisie-harlem-shake-ce-n-est-pas-un-crime-de-danser-01-03-2013-1634914_24.php",2
"425","http://www.lepopulaire.fr/france-monde/actualites/a-la-une/international.html",2
"426","http://www.lepopulaire.fr/limousin/actualite/2013/02/18/le-phenomene-web-harlem-shake-arrive-a-limoges-1448108-commentaire.html",2
"427","http://www.lepopulaire.fr/limousin/actualite/departement/correze/2013/03/04/apres-le-harlem-shake-des-brivistes-participent-a-la-mojo-dance-1464019.html",2
"428","http://www.leprogres.fr//football//2013//03//15//avec-robert-duverne-un-harlem-shake-c-est-sportif",2
"429","http://www.lesinrocks.com/inrocks.tv/apres-le-lipdub-de-lump-voici-le-harlem-shake-de-lump/",2
"430","http://www.lest-eclair.fr//actu//le-harlem-shake-arrive-a-bar-sur-aube",2
"431","http://www.liberation.fr/monde/2013/02/26/harlem-shake-la-tunisie-enquete-sur-ses-eleves_884618",2
"432","http://www.lindependant.fr/2013/02/15/apres-le-gangnam-style-le-nouveau-phenomene-du-net-s-appelle-le-harlem-shake,1727963.php",2
"433","http://www.lindependant.fr/2013/03/01/harlem-shake-chaotique-en-pleine-rue,1732214.php",2
"434","http://www.lnc.nc/article/bourail/harlem-shake-a-la-roche",2
"435","http://www.lyonne.fr/france-monde/actualites/a-la-une/international.html",2
"436","http://www.lyonne.fr/yonne/actualite/pays/auxerrois/2013/03/23/le-harlem-shake-annule-1488659.html",2
"437","http://www.lyonne.fr/yonne/actualite/pays/senonais/2013/03/02/les-medievales-de-villeneuve-sur-yonne-font-leur-harlem-shake-1462243.html",2
"438","http://www.midilibre.fr/2013/02/27/tunis-des-islamistes-attaquent-des-etudiants-lors-d-un-harlem-shake,651617.php",2
"439","http://www.midilibre.fr/2013/02/28/a-bagnols-aussi-on-se-dehanche-sur-le-harlem-shake,652206.php",2
"440","http://www.midilibre.fr/2013/03/04/de-jeunes-militants-ump-contamines-par-le-harlem-shake,654114.php",2
"441","http://www.midilibre.fr/2013/04/03/jerome-cahuzac-s-est-exclu-du-ps-annonce-harlem-desir,671439.php",2
"442","http://www.midilibre.fr/2013/04/03/le-centre-ville-se-dehanche-sur-un-harlem-shake,671771.php",2
"443","http://www.ouest-france.fr//actu//actuDet_-Insolite.-Le-golf-des-Fontenelles-a-son-Harlem-Shake_40826-2176181_actu.Htm",2
"444","http://www.ouest-france.fr//actu//actuDet_-Internet.-La-vague-Harlem-Shake-deferle-dans-l-Ouest_55257-2170247_actu.Htm",2
"445","http://www.ouest-france.fr//actu//actuDet_-Tunisie.-Le-Harlem-shake-devient-sujet-de-tensions_55257-2168596_actu.Htm",2
"446","http://www.ouest-france.fr//ofdernmin_-Insolite.-Le-golf-des-Fontenelles-a-son-Harlem-Shake_40771-2176181-pere-pdl_filDMA.Htm",2
"447","http://www.ouest-france.fr//ofdernmin_-Quimper.-Harlem-shake-les-jeunes-quimperois-s-y-mettent_40771-2175053-pere-bre_filDMA.Htm",2
"448","http://www.ouest-france.fr//sport//foot_fcnantes_detail_-Le-FC-Nantes-entre-dans-la-danse-du-Harlem-Shake_56334-2170499_actu.Htm",2
"449","http://www.ouest-france.fr//sport//foot_fcnantes_detail_-Le-Harlem-Shake-a-la-sauce-canari_40815-2170279_actu.Htm",2
"450","http://www.ouest-france.fr//sport//foot_staderennais_detail_-Harlem-Shake.-Avant-le-match-contre-Rennes-les-Verts-font-le-buzz-%5Bvideos%5D_44096-2170189_actu.Htm",2
"451","http://www.ouest-france.fr/actu/actuLocale_-Insolite.-Le-golf-des-Fontenelles-a-son-Harlem-Shake_40826-2176181------85222-aud_actu.Htm",2
"452","http://www.presseocean.fr//actualite//harlem-shake-du-fc-nantes-vu-des-coulisses-un-buzz-assure-06-03-2013-59881",2
"453","http://www.presseocean.fr//actualite//insolite-en-loire-atlantique-aussi-on-se-dechaine-avec-le-harlem-shake-25-02-2013-59247",2
"454","http://www.republicain-lorrain.fr/actualite/2013/03/15/un-harlem-shake-pour-secouer-metz-le-samedi-16-mars",2
"455","http://www.slateafrique.com//103973//tunisie-le-buzz-harlem-shake-derange-des-islamistes-radicaux",2
"456","http://www.slateafrique.com//104027//la-contagion-du-harlem-shake-atteint-le-caire",2
"457","http://www.slateafrique.com//104071//tunis-le-harlem-shake-geant-echoue-mobiliser",2
"458","http://www.telerama.fr//medias//les-habitants-de-harlem-lasses-du-phenomene-harlem-shake,93875.php",2
"459","http://www.youtube.com/embed/_aXTB67W8W8",2
"460","http://www.youtube.com/embed/-nKvQdBVvRs?wmode=opaque",2
"461","http://www.youtube.com/embed/0Uil8VtzcHI",2
"462","http://www.youtube.com/embed/2o7KITASUA0",2
"463","http://www.youtube.com/embed/37Hr01X-8SM",2
"464","http://www.youtube.com/embed/3WHxv6rzsoY?feature=player_embedded",2
"465","http://www.youtube.com/embed/6hDAyBbFgqY",2
"466","http://www.youtube.com/embed/ahQnhQyfIOg",2
"467","http://www.youtube.com/embed/Ektv1Go7y9A?wmode=opaque",2
"468","http://www.youtube.com/embed/GYtWCc3qMwo",2
"469","http://www.youtube.com/embed/IGH2HEgWppc?rel=0",2
"470","http://www.youtube.com/embed/Ir2TdfSwH8g?feature=oembed",2
"471","http://www.youtube.com/embed/K_i1rWCoFJM",2
"472","http://www.youtube.com/embed/Li5Tg4leMfw?wmode=opaque",2
"473","http://www.youtube.com/embed/MCFIKWipW4I",2
"474","http://www.youtube.com/embed/rdC3EqFuYrI",2
"475","http://www.youtube.com/embed/rzm_6jf5f-k",2
"476","http://www.youtube.com/embed/SFGOv-LMugA?wmode=opaque",2
"477","http://www.youtube.com/embed/tDktQB2g5s8",2
"478","http://www.youtube.com/embed/TZAYKwqexWE",2
"479","http://www.youtube.com/embed/uKQRbTT3WeA?rel=0",2
"480","http://www.youtube.com/embed/w8dRD6OByBs",2
"481","http://www.youtube.com/embed/yhDiV0ig1Fk",2
"482","http://www.youtube.com/embed/zBddtPwkcvs",2
"483","http://www.youtube.com/watch?v=-nKvQdBVvRs",2
"484","http://www.youtube.com/watch?v=0Uil8VtzcHI",2
"485","http://www.youtube.com/watch?v=2o7KITASUA0",2
"486","http://www.youtube.com/watch?v=37Hr01X-8SM",2
"487","http://www.youtube.com/watch?v=5-WACWXoj-Q",2
"488","http://www.youtube.com/watch?v=6hDAyBbFgqY",2
"489","http://www.youtube.com/watch?v=ahQnhQyfIOg",2
"490","http://www.youtube.com/watch?v=Ektv1Go7y9A",2
"491","http://www.youtube.com/watch?v=fZh0zehiih4",2
"492","http://www.youtube.com/watch?v=GYtWCc3qMwo",2
"493","http://www.youtube.com/watch?v=IGH2HEgWppc",2
"494","http://www.youtube.com/watch?v=K_i1rWCoFJM",2
"495","http://www.youtube.com/watch?v=Li5Tg4leMfw",2
"496","http://www.youtube.com/watch?v=mtPiLKsJ3Ws",2
"497","http://www.youtube.com/watch?v=QMjK0nmwzKU",2
"498","http://www.youtube.com/watch?v=rdC3EqFuYrI",2
"499","http://www.youtube.com/watch?v=rzm_6jf5f-k",2
"500","http://www.youtube.com/watch?v=SFGOv-LMugA",2
"501","http://www.youtube.com/watch?v=TZAYKwqexWE",2
"502","http://www.youtube.com/watch?v=w8dRD6OByBs",2
"503","http://www.youtube.com/watch?v=X5UO3u1YCGI",2
"504","http://www.youtube.com/watch?v=yZhZAyUpiRg",2
"505","http://www.youtube.com/watch?v=zBddtPwkcvs",2
"506","http://actu.rue89.com/meme-2328377",1
"507","http://actu.voila.fr/actualites/france/2013/02/23/en-prison-pour-un-harlem-shake_5214469.html",1
"508","http://actu.voila.fr/actualites/france/2013/02/23/en-prison-pour-un-harlem-shake_5214469.html?error=true",1
"509","http://actu.voila.fr/actualites/high-tech/2013/02/27/tunisie-des-islamistes-attaquent-des-etudiants-organisant-un-harlem-shake_5234939.html",1
"510","http://bigbrowser.blog.lemonde.fr/2013/02/26/viral-le-site-du-ministere-de-leducation-tunisien-hacke-en-soutien-a-des-harlem-shakers/",1
"511","http://blogs.lexpress.fr/jeunes-politiques/2013/03/04/apres-le-lipdub-les-jeunes-ump-de-paris-soffrent-un-harlem-shake/",1
"512","http://blogs.lexpress.fr/jeunes-politiques/2013/03/04/apres-le-lipdub-les-jeunes-ump-de-paris-soffrent-un-harlem-shake/feed/",1
"513","http://blogs.mediapart.fr/blog/rachid-barbouch/260213/four-men-arrested-egypt-harlem-shake",1
"514","http://etudiant.lefigaro.fr/vie-etudiante/news/detail/article/harlem-shake-les-etudiants-s-emparent-du-phenomene-1322/",1
"515","http://etudiant.lefigaro.fr/vie-etudiante/news/detail/article/harlem-shake-les-etudiants-s-emparent-du-phenomene-1322/1.0",1
"516","http://finance.yahoo.com/news/faa-probes-harlem-shake-frontier-151203393.html",1
"517","http://fr.tv.yahoo.com/news/touche-%c3%a0-poste-fait-harlem-shake-g%c3%a9ant-091100545.html",1
"518","http://lentreprise.lexpress.fr/publicite-et-communication/le-harlem-shake-fait-le-buzz-et-alors_39209.html",1
"519","http://m.lentreprise.com/le-harlem-shake-fait-le-buzz-et-alors_39209.html",1
"520","http://m.nicematin.com/grasse/video-les-joueurs-du-rugby-olympique-de-grasse-en-mode-harlem-shake.1175922.html",1
"521","http://m.nicematin.com/nice/video-la-place-magenta-a-nice-en-proie-a-une-harlem-shake-zumba-flashmob.1217462.html",1
"522","http://m.nicematin.com/nice/video-le-harlem-shake-debarque-place-massena-a-nice.1170728.html",1
"523","http://m.varmatin.com/draguignan/le-rugby-club-dracenois-se-met-au-harlem-shake.1148134.html",1
"524","http://meleeouverte.blogs.ouest-france.fr/archive/2013/03/21/video-harlem-shake-dejante-de-l-us-colomiers-fait-le-buzz.html",1
"525","http://mobile.lemonde.fr/afrique/video/2013/03/01/egypte-un-harlem-shake-devant-le-siege-des-freres-musulmans_1841617_3212.html",1
"526","http://news.fr.msn.com/m6-actualite/insolite/des-gueules-noires-licenci%c3%a9es-pour-un-harlem-shake-au-fond-de-la-mine-1",1
"527","http://news.fr.msn.com/m6-actualite/monde/les-insolites-de-mars-2013-1",1
"528","http://news.google.fr/news?pz=1&cf=all&ned=fr&hl=fr&q=Harlem&output=rss",1
"529","http://news.google.fr/news?pz=1&js=0&cf=all&ned=fr&hl=fr&q=Harlem&output=rss",1
"530","http://news.google.fr/news/section?pz=1&cf=all&ned=fr&hl=fr&q=Harlem&ict=clu_bl",1
"531","http://news.google.fr/news/section?pz=1&cf=all&ned=fr&hl=fr&q=Harlem&ict=clu_bl&js=0",1
"532","http://news.google.fr/news/story?ncl=doiym15BYXNnI-MwybmXstHgq9sEM&ned=fr&topic=e",1
"533","http://news.yahoo.com/blogs/sideshow/harlem-shake-gets-miners-deep-trouble-161416059.html",1
"534","http://player.vimeo.com/video/61546007?byline=0&portrait=0&color=ffffff",1
"535","http://tempsreel.nouvelobs.com/l-image-du-soir/20130211.OBS8499/harlem-shake-le-phenomene-qui-fait-danser-le-web.html",1
"536","http://tempsreel.nouvelobs.com/vu-sur-le-web/20130402.OBS6450/adieu-harlem-shake-bonjour-kamehameha.html",1
"537","http://tempsreel.nouvelobs.com/vu-sur-le-web/20130425.OBS7224/harlem-shake-un-phenomene-viral-tres-orchestre.html",1
"538","http://tianplus.blogs.nouvelobs.com/archive/2013/03/01/video1.html",1
"539","http://tianplus.blogs.nouvelobs.com/archive/2013/03/30/vaucluse-harlem-shake-au-college-onze-eleves-exclus.html",1
"540","http://video.fr.msn.com/watch/video/harlem-shake-les-faux-pas/13quxj1cy",1
"541","http://video.fr.msn.com/watch/video/harlem-shake-les-faux-pas/13quxj1cy?from=",1
"542","http://video.fr.msn.com/watch/video/harlem-shake-les-faux-pas/13quxj1cy?from=gallery_fr-fr&sf=Relevancy",1
"543","http://video.fr.msn.com/watch/video/insolite-le-harlem-shake-en-pieces-de-lego/13qfzzugj",1
"544","http://video.fr.msn.com/watch/video/insolite-le-harlem-shake-en-pieces-de-lego/13qfzzugj?from=gallery_fr-fr&sf=Relevancy",1
"545","http://www.20minutes.fr/article/1101551/encore-danse-frenetiquement-harlem-shake",1
"546","http://www.20minutes.fr/sport/1103873-video-harlem-shake-ca-devient-importe-quoi",1
"547","http://www.20minutes.fr/sport/1112335-harlem-shake-quand-joueurs-saint-etienne-retournent-vestiaire",1
"548","http://www.20minutes.fr/web/1111643-simpson-aussi-dansent-harlem-shake",1
"549","http://www.24matins.fr/harlem-shake-les-simpson-offrent-leur-propre-version-le-homer-shake-36820",1
"550","http://www.24matins.fr/lump-fait-son-harlem-shake-36877",1
"551","http://www.atlantico.fr/pepitesvideo/grenoble-maire-se-lance-dans-harlem-shake-pour-sauver-librairie-705071.html",1
"552","http://www.aujourdhui-en-france.fr/essonne-91/un-harlem-shake-de-250-lyceens-perturbent-la-circulation-a-massy-22-03-2013-2662263.php",1
"553","http://www.aujourdhui-en-france.fr/reactions/essonne-91/un-harlem-shake-de-250-lyceens-perturbent-la-circulation-a-massy-22-03-2013-2662263.php",1
"554","http://www.aujourdhui-en-france.fr/reactions/international/egypte-ils-defient-le-pouvoir-en-dansant-le-harlem-shake-28-02-2013-2606559.php",1
"555","http://www.aujourdhui-en-france.fr/reactions/politique/harlem-desir-veut-un-referendum-pour-moraliser-la-vie-politique-06-04-2013-2702505.php",1
"556","http://www.aujourdhui-en-france.fr/reactions/politique/l-ump-se-met-au-harlem-shake-04-03-2013-2615607.php",1
"557","http://www.aujourdhui-en-france.fr/reactions/sports/iledefrance/basket-video-nanterre-fete-sa-qualification-pour-la-finale-de-coupe-de-france-en-dansant-le-harlem-shake-10-04-2013-2714569.php",1
"558","http://www.aujourdhui-en-france.fr/reactions/sports/iledefrance/video-les-footballeurs-de-creteil-font-aussi-leur-harlem-shake-12-03-2013-2635579.php",1
"559","http://www.aujourdhui-en-france.fr/reactions/sports/video-les-verts-de-saint-etienne-font-leur-harlem-shake-05-03-2013-2618269.php",1
"560","http://www.aujourdhui-en-france.fr/reactions/tv/video-le-harlem-shake-des-simpsons-03-03-2013-2613089.php",1
"561","http://www.bienpublic.com////actualite//2013//02//23//dijon-cent-personnes-reunies-place-de-la-liberation-pour-un-harlem-shake",1
"562","http://www.bienpublic.com////grand-dijon//2013//02//25//un-harlem-shake-place-de-la-liberation-a-dijon",1
"563","http://www.bienpublic.com/haute-cote-d-or/2013/03/26/le-harlem-shake-allume-la-place-gambetta",1
"564","http://www.charentelibre.fr/2013/02/19/apres-le-gangnam-style-le-harlem-shake-debarque-a-angouleme,1140124.php",1
"565","http://www.charentelibre.fr/2013/02/19/apres-le-gangnam-style-le-harlem-shake-debque-a-angouleme,1140124.php",1
"566","http://www.charentelibre.fr/2013/02/24/apres-le-gangnam-style-le-harlem-shake-debarque-a-angouleme,1140124.php",1
"567","http://www.charentelibre.fr/2013/03/02/angouleme-le-harlem-shake-s-eare-des-jeunes-angoumoisins-video,1142146.php",1
"568","http://www.charentelibre.fr/2013/03/04/licencies-pour-avoir-fait-un-harlem-shake-au-fond-d-une-mine-australienne,1142355.php",1
"569","http://www.charentelibre.fr/2013/03/06/angouleme-le-sound-cafe-se-secoue-sur-un-harlem-shake-video,1142769.php",1
"570","http://www.charentelibre.fr/2013/03/11/la-jsa-a-aussi-sont-harlem-shake-video,1143512.php",1
"571","http://www.courrier-picard.fr/courrier/Actualites/Info-locale/Amiens-et-Metropole/Le-Harlem-Shake-secoue-la-fac",1
"572","http://www.courrier-picard.fr/courrier/Actualites/La-video-du-jour/Les-Jeunes-Pop-font-leur-Harlem-Shake",1
"573","http://www.courrier-picard.fr/var/plain_site/storage/images/harlem-shake-par-les-etudiants-en-droit-d-amiens/81/8975809-1-fre-FR/81_tiny.jpg",1
"574","http://www.courrier-picard.fr/var/plain_site/storage/images/harlem-shake-par-les-etudiants-en-droit-d-amiens/82/8975812-1-fre-FR/82_tiny.jpg",1
"575","http://www.courrier-picard.fr/var/plain_site/storage/images/harlem-shake-par-les-etudiants-en-droit-d-amiens/83/8975815-1-fre-FR/83_tiny.jpg",1
"576","http://www.courrier-picard.fr/var/plain_site/storage/images/harlem-shake-par-les-etudiants-en-droit-d-amiens/84/8975818-1-fre-FR/84_tiny.jpg",1
"577","http://www.courrier-picard.fr/var/plain_site/storage/images/harlem-shake-par-les-etudiants-en-droit-d-amiens/85/8975821-1-fre-FR/85_tiny.jpg",1
"578","http://www.courrier-picard.fr/var/plain_site/storage/images/harlem-shake-par-les-etudiants-en-droit-d-amiens/86/8975824-1-fre-FR/86_tiny.jpg",1
"579","http://www.courrier-picard.fr/var/plain_site/storage/images/harlem-shake-par-les-etudiants-en-droit-d-amiens/87/8975827-1-fre-FR/87_tiny.jpg",1
"580","http://www.courrier-picard.fr/var/plain_site/storage/images/harlem-shake-par-les-etudiants-en-droit-d-amiens/88/8975830-1-fre-FR/88_tiny.jpg",1
"581","http://www.courrier-picard.fr/var/plain_site/storage/images/harlem-shake-par-les-etudiants-en-droit-d-amiens/887/8975800-1-fre-FR/887_tiny.jpg",1
"582","http://www.courrier-picard.fr/var/plain_site/storage/images/harlem-shake-par-les-etudiants-en-droit-d-amiens/888/8975803-1-fre-FR/888_tiny.jpg",1
"583","http://www.courrier-picard.fr/var/plain_site/storage/images/harlem-shake-par-les-etudiants-en-droit-d-amiens/889/8975806-1-fre-FR/889_tiny.jpg",1
"584","http://www.courrier-picard.fr/var/plain_site/storage/images/harlem-shake-par-les-etudiants-en-droit-d-amiens/89/8975833-1-fre-FR/89_tiny.jpg",1
"585","http://www.dailymotion.com/embed/video/xxvsni",1
"586","http://www.dailymotion.com/embed/video/xxvw8s",1
"587","http://www.dailymotion.com/video/xxvsni_egypte-un-harlem-shake-devant-la-qg-des-freres-musulmans_news",1
"588","http://www.dailymotion.com/video/xxvw8s_egypte-un-harlem-shake-devant-le-siege-des-freres-musulmans_news",1
"589","http://www.dailymotion.com/video/xy7efn_un-harlem-shake-pour-secouer-metz-le-samedi-16-mars_news",1
"590","http://www.directmatin.fr/insolite/2013-02-25/harlem-shake-en-slip-solidarite-avec-les-etudiants-egyptiens-arretes-401028",1
"591","http://www.directmatin.fr/insolite/2013-03-04/des-mineurs-licenciees-pour-un-harlem-shake-411348",1
"592","http://www.directmatin.fr/insolite/2013-04-05/le-harlem-shake-des-soldats-belges-en-string-censure-434306",1
"593","http://www.directmatin.fr/insolite/2013-04-14/un-harlem-shake-version-japonaise-437559",1
"594","http://www.directmatin.fr/politique/2013-04-06/harlem-desir-pour-un-referendum-sur-la-moralisation-de-la-vie-politique-434548",1
"595","http://www.dna.fr/divers/2013/04/15/un-harlem-shake-shintoiste",1
"596","http://www.dna.fr/societe/2013/02/28/le-harlem-shake-irrite-les-salafistes",1
"597","http://www.estrepublicain.fr/haute-saone/2013/02/24/harlem-shake-made-in-vesoul",1
"598","http://www.estrepublicain.fr/loisirs/2013/02/18/carnaval-a-charlemagne",1
"599","http://www.estrepublicain.fr/loisirs/2013/03/23/verdun-un-vent-de-folie-pour-la-harlem-shake",1
"600","http://www.estrepublicain.fr/meurthe-et-moselle/2013/02/25/ouverture-de-l-accueil-de-loisirs-municipal-dans-les-centres-charlemagne-braconnot-ory-charles-iii",1
"601","http://www.estrepublicain.fr/meurthe-et-moselle/2013/03/16/pere-cent-danse-le-harlem-shake",1
"602","http://www.estrepublicain.fr/meuse/2013/03/13/un-harlem-shake-se-prepare-a-verdun",1
"603","http://www.estrepublicain.fr/videodiap/2013/03/16/harlem-a-nancy",1
"604","http://www.francetv.fr/culturebox/tunisie-un-harlem-shake-trop-subversif-pour-le-gouvernement-132849",1
"605","http://www.huffingtonpost.fr/2013/02/11/harlem-shake-video-phenomene-origine-youtube_n_2663257.html?icid=maing-grid7%7Cfrance%7Cdl3%7Csec3_lnk4%26pLid%3D154178",1
"606","http://www.huffingtonpost.fr/2013/02/11/harlem-shake-video-phenomene-origine-youtube_n_2663257.html?utm_hp_ref=france",1
"607","http://www.huffingtonpost.fr/2013/02/19/harlem-shake-hockey-equipe-forfait-victime-video_n_2715194.html?utm_hp_ref=france",1
"608","http://www.huffingtonpost.fr/2013/02/20/harlem-shake-video-harlem_n_2725390.html",1
"609","http://www.huffingtonpost.fr/2013/02/20/harlem-shake-video-harlem_n_2725390.html?utm_hp_ref=france",1
"610","http://www.huffingtonpost.fr/2013/03/01/harlem-shake-enquete-sur-video-avion-colorado-college_n_2789943.html",1
"611","http://www.huffingtonpost.fr/2013/03/01/harlem-shake-enquete-sur-video-avion-colorado-college_n_2789943.html?utm_hp_ref=france",1
"612","http://www.huffingtonpost.fr/2013/03/03/video-harlem-shake-ump_n_2800212.html?utm_hp_ref=mostpopular",1
"613","http://www.ladepeche.fr/article/2013/03/03/1573524-2-000-pour-le-harlem-shake.html",1
"614","http://www.ladepeche.fr/article/2013/03/04/1574521-quand-les-jeunes-ump-font-leur-harlem-shake.html",1
"615","http://www.ladepeche.fr/article/2013/03/11/1579618-apres-le-harlem-shake-voici-la-danse-du-poney-video.html",1
"616","http://www.ladepeche.fr/article/2013/03/12/1579939-limoux-xiii-en-mode-harlem-schake.html",1
"617","http://www.ladepeche.fr/article/2013/03/26/1591174-gimont-harlem-shake-gimontois.html",1
"618","http://www.ladepeche.fr/article/2013/04/01/1595822-un-harlem-shake-pour-faire-la-promotion-de-leur-tournoi.html",1
"619","http://www.ladepeche.fr/article/2013/04/02/1596208-albi-harlem-shake-au-college-balzac.html",1
"620","http://www.lalsace.fr//actualite//2013//02//16//le-harlem-shake-fait-escale-en-gare-de-mulhouse",1
"621","http://www.lalsace.fr//actualite//2013//02//22//science-po-se-met-au-harlem-shake",1
"622","http://www.lalsace.fr//haut-rhin//2013//03//14//les-carnavaliers-succombent-a-la-vague-planetaire-du-harlem-shake",1
"623","http://www.lalsace.fr/actualite/2013/02/14/le-harlem-shake-attaque-a-soultz",1
"624","http://www.lalsace.fr/haut-rhin/2013/03/19/le-harlem-shake-de-kaysersberg",1
"625","http://www.lamontagne.fr/auvergne/actualite/2013/02/21/l-universite-d-auvergne-sort-son-harlem-shake-making-of-1451881-commentaire.html",1
"626","http://www.lamontagne.fr/auvergne/actualite/departement/haute-loire/le-puy/2013/03/27/le-cop-rugby-fait-son-harlem-shake-1493410.html",1
"627","http://www.lamontagne.fr/auvergne/actualite/departement/puy-de-dome/clermont-ferrand/2013/02/21/un-harlem-shake-organise-aujourd-hui-a-12-h-15-devant-la-fac-de-droit-1451881.html",1
"628","http://www.lamontagne.fr/auvergne/actualite/departement/puy-de-dome/clermont-ferrand/2013/03/06/un-harlem-shake-samedi-place-de-jaude-1466837.html",1
"629","http://www.lamontagne.fr/auvergne/actualite/departement/puy-de-dome/clermont-ferrand/2013/03/07/l-asm-clermont-auvergne-a-aussi-fait-son-harlem-shake-1468025.html",1
"630","http://www.lamontagne.fr/auvergne/actualite/departement/puy-de-dome/clermont-ferrand/2013/03/13/l-universite-d-auvergne-censure-en-partie-son-harlem-shake-video-1475208.html",1
"631","http://www.lamontagne.fr/france-monde/actualites/a-la-une.html",1
"632","http://www.lamontagne.fr/france-monde/actualites/a-la-une/international/2013/02/27/tunisie-le-buzz-harlem-shake-derange-des-islamistes-radicaux-1458748.html",1
"633","http://www.lamontagne.fr/limousin/actualite.html",1
"634","http://www.lamontagne.fr/limousin/sports/actualite/basket/2013/02/26/le-harlem-shake-des-basketteurs-de-la-jav-video-1457331.html",1
"635","http://www.lanouvellerepublique.fr/France-Monde/Loisirs/Jeux-video-high-tech/n/Contenus/Articles/2013/02/23/Harlem-n-en-peut-deja-plus-du-Harlem-Shake-Le-meilleur-et-le-pire-du-web-episode-22-1345741",1
"636","http://www.lanouvellerepublique.fr/Loir-et-Cher/Actualite/24-Heures/n/Contenus/Articles/2013/03/10/VIDEO.-Blois-le-1er-Harlem-shake-secoue-la-place-du-chateau-!-1365152",1
"637","http://www.lanouvellerepublique.fr/Toute-zone/Actualite/24-Heures/n/Contenus/Articles/2013/03/10/VIDEO.-Blois-le-1er-Harlem-shake-secoue-la-place-du-chateau-!-1365152",1
"638","http://www.lanouvellerepublique.fr/Toute-zone/Loisirs/Jeux-video-high-tech/n/Contenus/Articles/2013/02/23/Harlem-n-en-peut-deja-plus-du-Harlem-Shake-Le-meilleur-et-le-pire-du-web-episode-22-1345741",1
"639","http://www.lanouvellerepublique.fr/var/nrv2/storage/images/contenus/articles/2013/03/12/le-premier-harlem-shake-de-blois-fait-le-buzz-1367411/25621673-1-fre-FR/Le-premier-Harlem-Shake-de-Blois-fait-le-buzz_article_line.jpg",1
"640","http://www.lanouvellerepublique.fr/var/nrv2/storage/images/contenus/articles/2013/03/12/le-premier-harlem-shake-de-blois-fait-le-buzz-1367411/25621673-1-fre-FR/Le-premier-Harlem-Shake-de-Blois-fait-le-buzz_image_3_articles.jpg",1
"641","http://www.lanouvellerepublique.fr/var/nrv2/storage/images/contenus/articles/2013/03/18/les-temps-forts-du-web-de-la-semaine-passee-1374958/25759944-1-fre-FR/Les-temps-forts-du-web-de-la-semaine-passee_article_line.jpg",1
"642","http://www.lanouvellerepublique.fr/var/nrv2/storage/images/contenus/articles/2013/03/18/les-temps-forts-du-web-de-la-semaine-passee-1374958/25759944-1-fre-FR/Les-temps-forts-du-web-de-la-semaine-passee_image_3_articles.jpg",1
"643","http://www.lanouvellerepublique.fr/var/nrv2/storage/images/contenus/articles/2013/03/18/les-temps-forts-du-web-de-la-semaine-passee-1374958/25759944-1-fre-FR/Les-temps-forts-du-web-de-la-semaine-passee_right_commune.jpg",1
"644","http://www.lanouvellerepublique.fr/var/nrv2/storage/images/contenus/articles/2013/04/08/les-temps-forts-du-web-de-la-semaine-passee-1402305/26263123-1-fre-FR/Les-temps-forts-du-Web-de-la-semaine-passee_article_line.jpg",1
"645","http://www.lanouvellerepublique.fr/var/nrv2/storage/images/contenus/articles/2013/04/08/les-temps-forts-du-web-de-la-semaine-passee-1402305/26263123-1-fre-FR/Les-temps-forts-du-Web-de-la-semaine-passee_right_commune.jpg",1
"646","http://www.lanouvellerepublique.fr/var/nrv2/storage/images/contenus/articles/2013/04/16/quand-le-harlem-shake-le-loir-et-cher-1413637/26470425-1-fre-FR/Quand-le-Harlem-shake-le-Loir-et-Cher_article_line.jpg",1
"647","http://www.lanouvellerepublique.fr/var/nrv2/storage/images/contenus/articles/2013/04/16/quand-le-harlem-shake-le-loir-et-cher-1413637/26470425-1-fre-FR/Quand-le-Harlem-shake-le-Loir-et-Cher_image_3_articles.jpg",1
"648","http://www.lanouvellerepublique.fr/var/nrv2/storage/images/contenus/articles/2013/04/16/quand-le-harlem-shake-le-loir-et-cher-1413637/26470425-1-fre-FR/Quand-le-Harlem-shake-le-Loir-et-Cher_right_commune.jpg",1
"649","http://www.lanouvellerepublique.fr/var/nrv2/storage/images/contenus/articles/2013/04/30/harlem-shake-le-karate-improvise-une-danse-1431397/26793024-1-fre-FR/Harlem-Shake-le-karate-improvise-une-danse_article_line.jpg",1
"650","http://www.lanouvellerepublique.fr/var/nrv2/storage/images/contenus/articles/2013/04/30/harlem-shake-le-karate-improvise-une-danse-1431397/26793024-1-fre-FR/Harlem-Shake-le-karate-improvise-une-danse_right_commune.jpg",1
"651","http://www.larep.fr/france-monde/actualites/societe.html",1
"652","http://www.larep.fr/france-monde/actualites/societe/insolite.html",1
"653","http://www.larep.fr/zone/centre/eure-et-loir/28000/chartres.html",1
"654","http://www.lavoixdunord.fr/culture-loisirs/mercredis-moi-tout-harlem-shake-jna0b0n1111496",1
"655","http://www.lavoixdunord.fr/region/a-pile-j-1-ils-sont-plus-de-800-inscrits-au-harlem-jna29b0n1064177",1
"656","http://www.lavoixdunord.fr/region/boulogne-sur-mer-un-harlem-shake-sur-la-place-ia31b0n1077889",1
"657","http://www.lavoixdunord.fr/region/le-cob-surfe-sur-la-vague-du-harlem-shake-jna33b48581n1142755",1
"658","http://www.lavoixdunord.fr/region/le-plus-gros-harlem-shake-du-monde-a-arras-jna29b0n1059774",1
"659","http://www.lavoixdunord.fr/region/lille-le-harlem-shake-facon-wrung-video-ia19b0n1103275",1
"660","http://www.leberry.fr/accueil.html?refresh=true",1
"661","http://www.leberry.fr/france-monde/actualites/societe.html",1
"662","http://www.ledauphine.com//hautes-alpes//2013//03//10//a-orcieres-le-plus-grand-harlem-shake-du-monde-sbee",1
"663","http://www.ledauphine.com//isere-sud//2013//03//18//grenoble-le-harlem-shake-du-samu-social",1
"664","http://www.ledauphine.com//isere-sud//2013//04//02//grenoble-et-voila-le-harlem-shake-a-la-patinoire",1
"665","http://www.ledauphine.com//skichrono//2013//03//19//l-esf-des-gets-fait-son-harlem-shake",1
"666","http://www.ledauphine.com//sport//2013//03//09//le-harlem-shake-des-joueurs-de-tullins",1
"667","http://www.ledauphine.com/isere-sud/2013/04/20/sauvez-arthaud-les-petitions-remises-a-michel-destot-un-harlem-shake-aujourd-hui",1
"668","http://www.ledauphine.com/savoie/2013/03/04/les-basketteurs-d-aix-maurienne-font-leur-harlem-shake",1
"669","http://www.ledauphine.com/savoie/2013/03/30/harlem-shake-geant-au-pied-de-la-grande-rochette",1
"670","http://www.ledauphine.com/sport/2013/03/05/les-verts-font-leur-harlem-shake",1
"671","http://www.ledauphine.com/vaucluse/2013/03/29/exclus-apres-un-harlem-shake",1
"672","http://www.lefigaro.fr/actualite-france/2013/03/12/01016-20130312ARTFIG00471-pourquoi-le-harlem-shake-est-un-phenomene-viral.php",1
"673","http://www.lefigaro.fr/flash-actu/2013/02/23/97001-20130223FILWWW00436-harlem-shake-4-egyptiens-arretes.php",1
"674","http://www.lefigaro.fr/flash-actu/2013/02/28/97001-20130228FILWWW00744-le-harlem-shake-atteint-le-caire.php",1
"675","http://www.lefigaro.fr/flash-actu/2013/03/04/97001-20130304FILWWW00235-licencies-pour-un-harlem-shake.php",1
"676","http://www.lefigaro.fr/flash-sport/2013/03/27/97003-20130327FILSPO00651-guazzini-et-son-harlem-shake.php",1
"677","http://www.lefigaro.fr/hightech/2013/03/06/01007-20130306ARTFIG00622-pour-eux-c-etait-le-dernier-harlem-shake.php",1
"678","http://www.lefigaro.fr/hightech/2013/03/13/01007-20130313ARTFIG00610-la-famille-royale-anglaise-fait-son-harlem-shake.php",1
"679","http://www.lejdc.fr/dossiers.html",1
"680","http://www.lejdc.fr/france-monde/actualites/2013/03/23/sexion-d-assaut-fera-un-harlem-shake-au-printemps-de-bourges-1488511.html",1
"681","http://www.lejdc.fr/france-monde/actualites/societe.html",1
"682","http://www.lejdc.fr/nievre/actualite/pays/morvan/2013/03/18/des-eleves-du-lycee-militaire-d-autun-sanctionnes-pour-un-harlem-shake-1481370.html",1
"683","http://www.lejdc.fr/zone/centre/eure-et-loir/28000/chartres.html",1
"684","http://www.lejdd.fr/International/Depeches/Vires-pour-un-Harlem-Shake-dans-une-mine-594681",1
"685","http://www.lejdd.fr/Politique/Depeches/L-UMP-aussi-a-son-Harlem-Shake-594653",1
"686","http://www.lejsl.com////actualite//2013//02//23//macon-a-l-heure-du-harlem-shake",1
"687","http://www.lemonde.fr/afrique/video/2013/03/01/egypte-un-harlem-shake-devant-le-siege-des-freres-musulmans_1841617_3212.html",1
"688","http://www.leparisien.fr/essonne-91/un-harlem-shake-de-250-lyceens-perturbent-la-circulation-a-massy-22-03-2013-2662263.php",1
"689","http://www.leparisien.fr/reactions/essonne-91/un-harlem-shake-de-250-lyceens-perturbent-la-circulation-a-massy-22-03-2013-2662263.php",1
"690","http://www.leparisien.fr/reactions/international/egypte-ils-defient-le-pouvoir-en-dansant-le-harlem-shake-28-02-2013-2606559.php",1
"691","http://www.leparisien.fr/reactions/politique/harlem-desir-veut-un-referendum-pour-moraliser-la-vie-politique-06-04-2013-2702505.php",1
"692","http://www.leparisien.fr/reactions/politique/l-ump-se-met-au-harlem-shake-04-03-2013-2615607.php",1
"693","http://www.leparisien.fr/reactions/sports/iledefrance/basket-video-nanterre-fete-sa-qualification-pour-la-finale-de-coupe-de-france-en-dansant-le-harlem-shake-10-04-2013-2714569.php",1
"694","http://www.leparisien.fr/reactions/sports/iledefrance/video-les-footballeurs-de-creteil-font-aussi-leur-harlem-shake-12-03-2013-2635579.php",1
"695","http://www.leparisien.fr/reactions/sports/video-les-verts-de-saint-etienne-font-leur-harlem-shake-05-03-2013-2618269.php",1
"696","http://www.leparisien.fr/reactions/tv/video-le-harlem-shake-des-simpsons-03-03-2013-2613089.php",1
"697","http://www.lepoint.fr/musique/video-harlem-shake-la-nouvelle-danse-de-la-planete-internet-27-02-2013-1633739_38.php",1
"698","http://www.lepopulaire.fr/dossiers.html",1
"699","http://www.lepopulaire.fr/france-monde/actualites/a-la-une.html",1
"700","http://www.lepopulaire.fr/limousin/actualite/departement/haute-vienne.html",1
"701","http://www.leprogres.fr/faits-divers/2013/03/10/bourg-le-harlem-shake-tourne-a-la-baston-un-blesse",1
"702","http://www.leprogres.fr/jura/2013/03/16/le-phenomene-harlem-shake-s-invite-place-de-la-liberte-a-lons",1
"703","http://www.leprogres.fr/sports/2013/03/06/umtiti-et-les-joueurs-lyonnais-vont-lancer-leur-harlem-shake",1
"704","http://www.lesinrocks.com/2013/02/25/actualite/le-harlem-shake-emprunte-t-il-a-lart-avec-un-grand-a-11365657/",1
"705","http://www.lesinrocks.com/inrocks.tv/harlem-shake-le-nouveau-clip-dazealia-banks/",1
"706","http://www.letelegramme.com/ig/generales/france-monde/monde/buzz-le-harlem-shake-secoue-le-web-15-02-2013-2006818.php",1
"707","http://www.letelegramme.com/ig/generales/france-monde/monde/tunisie-le-harlem-shake-de-la-discorde-01-03-2013-2022199.php",1
"708","http://www.letelegramme.com/local/cotes-d-armor/dinan/ville/dinan-harlem-shake-geant-au-lycee-de-la-fontaine-des-eaux-19-04-2013-2076677.php",1
"709","http://www.letelegramme.fr/local/cotes-d-armor/dinan/ville/dinan-harlem-shake-geant-au-lycee-de-la-fontaine-des-eaux-19-04-2013-2076677.php",1
"710","http://www.letelegramme.fr/tag/Harlem%20Shake",1
"711","http://www.lexpress.fr/actualite/monde/afrique/en-tunisie-le-harlem-shake-vire-au-combat-de-societe_1225785.html",1
"712","http://www.liberation.fr/depeches/2013/03/04/des-gueules-noires-licenciees-pour-un-harlem-shake-au-fond-de-la-mine_886091",1
"713","http://www.liberation.fr/monde/2013/02/26/commentaires/harlem-shake-la-tunisie-enquete-sur-ses-eleves_884618",1
"714","http://www.liberation.fr/monde/2013/02/27/commentaires/le-ton-monte-autour-du-harlem-shake-a-tunis_885080",1
"715","http://www.liberation.fr/monde/2013/02/27/dennis-rodman-et-les-harlem-globe-trotters-debarquent-a-pyongyang_885054",1
"716","http://www.liberation.fr/monde/2013/03/01/commentaires/faible-mobilisation-pour-le-harlem-shake-tunisien_885635",1
"717","http://www.liberation.fr/monde/2013/03/01/faible-mobilisation-pour-le-harlem-shake-tunisien_885635",1
"718","http://www.lindependant.fr/2013/02/24/harlem-shake-la-contagion-touche-l-aude-et-des-pyrenees-orientales,1730712.php",1
"719","http://www.lindependant.fr/2013/03/03/harlem-shake-des-al-chemist-aux-treizistes-une-semaine-folle,1732708.php",1
"720","http://www.lindependant.fr/2013/03/13/venez-faire-le-harlem-shake-a-la-cite-de-carcassonne,1735596.php",1
"721","http://www.lindependant.fr/2013/04/15/le-harlem-shake-de-jeune-con,1745941.php",1
"722","http://www.lunion.presse.fr/actu/harlem-shake",1
"723","http://www.lunion.presse.fr/actu/harlem-shake-place-ducale-cet-apres-midi",1
"724","http://www.lunion.presse.fr/actu/harlem-shake-place-ducale-le-lundi-1er-avril",1
"725","http://www.lunion.presse.fr/actu/video-harlem-shake",1
"726","http://www.lunion.presse.fr/actu/video%C2%A0reims-a-eu-son-harlem-shake",1
"727","http://www.lunion.presse.fr/article/ardennes/photos-le-harlem-shake-a-reuni-300-personnes",1
"728","http://www.lunion.presse.fr/media/imagecache/article-miniature-1/harlem-shake-mar-igu-p01-harlemshakechar-753958.jpg",1
"729","http://www.lunion.presse.fr/media/imagecache/article-miniature-1/protec/2013-03/2013-03-07/201303075138165fb7c7c-0-740477.jpg",1
"730","http://www.lunion.presse.fr/media/imagecache/article-miniature-2/harlem-shake-mar-igu-p01-harlemshakechar-753958.jpg",1
"731","http://www.lunion.presse.fr/media/imagecache/article-taille-normale/harlem-shake-mar-igu-p01-harlemshakechar-753958.jpg",1
"732","http://www.lunion.presse.fr/media/imagecache/diaporama_auto_vignette/harlem-shake-mar-igu-p01-harlemshakechar-753958.jpg",1
"733","http://www.lunion.presse.fr/media/imagecache/diaporama_auto_vignette/harlem-shake-mar-lar-p03-harlemshakech_2_2-753960.jpg",1
"734","http://www.lunion.presse.fr/media/imagecache/diaporama_auto_vignette/harlem-shake-mar-lar-p03-harlemshakech_2-753959.jpg",1
"735","http://www.lunion.presse.fr/media/imagecache/diaporama_auto_vignette/harlem-shake-mar-lar-p03-harlemshakech_3-753961.jpg",1
"736","http://www.lunion.presse.fr/media/imagecache/diaporama_auto_vignette/harlem-shake-mar-lar-p03-harlemshakech_5-753962.jpg",1
"737","http://www.lunion.presse.fr/media/imagecache/diaporama_auto_vignette/harlem-shake-mar-lar-p03-harlemshakechar_2-753964.jpg",1
"738","http://www.lunion.presse.fr/media/imagecache/diaporama_auto_vignette/harlem-shake-mar-lar-p03-harlemshakechar-753963.jpg",1
"739","http://www.lunion.presse.fr/media/imagecache/diaporama-bloc-home/harlem-shake-mar-igu-p01-harlemshakechar-753958.jpg",1
"740","http://www.lunion.presse.fr/media/imagecache/diaporama-bloc-home/harlem-shake-mar-lar-p03-harlemshakech_2_2-753960.jpg",1
"741","http://www.lunion.presse.fr/media/imagecache/diaporama-bloc-home/harlem-shake-mar-lar-p03-harlemshakech_2-753959.jpg",1
"742","http://www.lunion.presse.fr/media/imagecache/diaporama-miniature/harlem-shake-mar-igu-p01-harlemshakechar-753958.jpg",1
"743","http://www.lunion.presse.fr/media/imagecache/diaporama-miniature/harlem-shake-mar-lar-p03-harlemshakech_2_2-753960.jpg",1
"744","http://www.lunion.presse.fr/media/imagecache/diaporama-miniature/harlem-shake-mar-lar-p03-harlemshakech_2-753959.jpg",1
"745","http://www.lunion.presse.fr/media/imagecache/diaporama/harlem-shake-mar-igu-p01-harlemshakechar-753958.jpg",1
"746","http://www.lunion.presse.fr/media/imagecache/home_image_article1/harlem-shake-mar-igu-p01-harlemshakechar-753958.jpg",1
"747","http://www.lyonne.fr/france-monde/actualites/societe.html",1
"748","http://www.lyonne.fr/france-monde/actualites/societe/insolite.html",1
"749","http://www.lyonne.fr/yonne/actualite/pays/senonais.html",1
"750","http://www.lyonne.fr/zone/bourgogne/nievre/58000/nevers.html",1
"751","http://www.metrofrance.com/info/le-harlem-shake-secoue-le-monde-entier/mmcc!GpdPQD6RDC8DE/",1
"752","http://www.metrofrance.com/paris/video-les-jeunes-ump-de-paris-font-leur-harlem-shake/mmcc!6u0MxmiJYcvVU/",1
"753","http://www.metrofrance.com/sport/en-video-le-harlem-shake-facon-balotelli/mmbu!c8GcgxfzpYOQ/",1
"754","http://www.metrofrance.com/toulouse/2000-personnes-pour-le-harlem-shake-a-toulouse/mmcc!rmWVylGqKt87Q/",1
"755","http://www.midilibre.fr/2013/03/18/harlem-shake-a-lunel-le-rendez-vous-est-lance,661912.php",1
"756","http://www.midilibre.fr/2013/03/27/quelques-harlem-shake-biterroises-pour-corser-un-peu-le-gouter,667598.php",1
"757","http://www.midilibre.fr/2013/03/30/le-harlem-shake-fait-vibrer-lunel,669407.php",1
"758","http://www.midilibre.fr/2013/04/18/le-harlem-shake-version-lego,681090.php",1
"759","http://www.nicematin.com/grasse/video-les-joueurs-du-rugby-olympique-de-grasse-en-mode-harlem-shake.1175922.html",1
"760","http://www.nicematin.com/nice/video-la-place-magenta-a-nice-en-proie-a-une-harlem-shake-zumba-flashmob.1217462.html",1
"761","http://www.nicematin.com/nice/video-le-harlem-shake-debarque-place-massena-a-nice.1170728.html",1
"762","http://www.ouest-france.fr/actu/actuDet_-%5BJactiv%5D-D-ou-vient-le-phenomene-Harlem-shake-_6346-2172937_actu.Htm",1
"763","http://www.ouest-france.fr/actu/actuLocale_-Buzz-internet.-La-vague-du-Harlem-Shake-deferle-sur-Rennes_40823-2170090------35238-aud_actu.Htm",1
"764","http://www.ouest-france.fr/actu/actuLocale_-Buzz.-Les-Caennais-dans-la-danse-Harlem-shake-%5Bvideos%5D_40780-2169708------14118-aud_actu.Htm",1
"765","http://www.ouest-france.fr/actu/actuLocale_-Carnaval-etudiant-de-Caen.-Plus-de-6-000-participants-au-Harlem-Shake_40780-2178026------14118-aud_actu.Htm",1
"766","http://www.ouest-france.fr/actu/actuLocale_-Cholet.-Une-vingtaine-de-danseurs-aux-Harlem-shake-_40787-2176304------49099-aud_actu.Htm",1
"767","http://www.ouest-france.fr/actu/actuLocale_-Dinan.-Un-Harlem-shake-a-la-Fontaine-des-Eaux_40791-2185292------22050-aud_actu.Htm",1
"768","http://www.ouest-france.fr/actu/actuLocale_-Le-Harlem-Shake-a-la-sauce-canari_40815-2170279------44109-aud_actu.Htm",1
"769","http://www.ouest-france.fr/actu/actuLocale_-Quimper.-Harlem-shake-les-jeunes-quimperois-s-y-mettent_40820-2175053------29232-aud_actu.Htm",1
"770","http://www.ouest-france.fr/ofdernmin_-Buzz-internet.-La-vague-du-Harlem-Shake-deferle-sur-Rennes_40771-2170090-pere-bre_filDMA.Htm",1
"771","http://www.ouest-france.fr/ofdernmin_-Buzz.-Les-Caennais-dans-la-danse-Harlem-shake-%5Bvideos%5D_40771-2169708-pere-bno_filDMA.Htm",1
"772","http://www.ouest-france.fr/ofdernmin_-Carnaval-etudiant-de-Caen.-Plus-de-6-000-participants-au-Harlem-Shake_40771-2178026-pere-bno_filDMA.Htm",1
"773","http://www.ouest-france.fr/ofdernmin_-Cholet.-Une-vingtaine-de-danseurs-aux-Harlem-shake-_40771-2176304-pere-pdl_filDMA.Htm",1
"774","http://www.ouest-france.fr/ofdernmin_-Dinan.-Un-Harlem-shake-a-la-Fontaine-des-Eaux_40771-2185292-pere-bre_filDMA.Htm",1
"775","http://www.ouest-france.fr/ofdernmin_-Insolite.-Le-golf-des-Fontenelles-a-son-Harlem-Shake_44096-2176181-fils-tous_filDMA.Htm",1
"776","http://www.ouest-france.fr/region/paysdelaloire_detail_-Insolite.-Le-golf-des-Fontenelles-a-son-Harlem-Shake_40826-2176181_actu.Htm",1
"777","http://www.paris-normandie.fr/actu/enquete-contre-des-eleves-de-tunis-a-cause-du-buzz-planetaire-harlem-shake",1
"778","http://www.paris-normandie.fr/media/imagecache/article-taille-normale/protec/2013-04/2013-04-01/201304015158d55790eb3-0-541540.jpg",1
"779","http://www.pcinpact.com/breve/77925-google-easter-egg-sur-youtube-en-hommage-au-harlem-shake.htm",1
"780","http://www.pcinpact.com/breve/77925-google-easter-egg-sur-youtube-en-hommage-au-harlem-shake.htm?vc=1",1
"781","http://www.presseocean.fr/actualite/insolite-decouvrez-le-harlem-shake-du-fc-nantes-video-07-03-2013-59945",1
"782","http://www.rue89.com/2013/02/25/le-gouvernement-tunisien-enquete-apres-un-harlem-shake-dadolescents-240028",1
"783","http://www.rue89.com/2013/02/25/le-gouvernement-tunisien-enquete-apres-un-harlem-shake-dadolescents-240028?imprimer=1",1
"784","http://www.rue89.com/zapnet/2013/02/24/des-etudiants-egyptiens-arretes-pour-avoir-tourne-un-harlem-shake-239982",1
"785","http://www.rue89.com/zapnet/2013/03/04/les-jeunes-ump-osent-le-harlem-shake-politique-240206",1
"786","http://www.slateafrique.com/103849/tunisie-%E2%80%93-le-harlem-shake-passe-mal",1
"787","http://www.sudouest.fr/2013/02/18/apres-le-gangnam-style-le-phenomene-harlem-shake-970387-4725.php",1
"788","http://www.sudouest.fr/2013/02/20/video-le-harlem-shake-version-stade-rochelais-972666-4568.php",1
"789","http://www.sudouest.fr/2013/02/23/harlem-shake-quand-les-jeunes-des-girondins-de-bordeaux-font-tomber-le-maillot-976087-4558.php",1
"790","http://www.sudouest.fr/2013/02/25/harlem-shake-le-stade-montois-futsal-ouvre-le-bal-landais-977603-3452.php",1
"791","http://www.sudouest.fr/2013/03/08/le-harlem-shake-des-etudiants-de-la-fac-de-droit-bordeaux-iv-988968-2780.php",1
"792","http://www.sudouest.fr/2013/03/12/le-harlem-shake-delirant-des-jeunes-basketteurs-de-boulazac-992345-1980.php",1
"793","http://www.sudouest.fr/2013/03/16/perigueux-plus-de-500-personnes-pour-le-harlem-shake-geant-996762-1980.php",1
"794","http://www.sudouest.fr/2013/03/22/harlem-shake-au-city-stade-de-langon-1002750-2932.php",1
"795","http://www.sudouest.fr/2013/04/10/boris-diaw-cree-son-harlem-shake-en-lego-1020921-683.php",1
"796","http://www.thepostgame.com//blog//animal-house//201302//puppies-get-harlem-shake-craze",1
"797","http://www.varmatin.com/draguignan/le-rugby-club-dracenois-se-met-au-harlem-shake.1148134.html",1
"798","http://www.youtube-nocookie.com/embed/384IUU43bfQ",1
"799","http://www.youtube-nocookie.com/embed/4hpEnLtqUDg",1
"800","http://www.youtube-nocookie.com/embed/5mJDClXmqow?rel=0",1
"801","http://www.youtube-nocookie.com/embed/Cw0thQFAjrc?rel=0",1
"802","http://www.youtube-nocookie.com/embed/eTXV4AdZ-dE?rel=0",1
"803","http://www.youtube-nocookie.com/embed/hiUqddR2nx4?rel=0",1
"804","http://www.youtube-nocookie.com/embed/pbhskUXZIIk",1
"805","http://www.youtube.com/embed/_gMellulFVM?rel=0",1
"806","http://www.youtube.com/embed/-0ORPrqXSbo",1
"807","http://www.youtube.com/embed/-unIOs_Yt3w",1
"808","http://www.youtube.com/embed/-ZpSVzZxTZk",1
"809","http://www.youtube.com/embed/1EvChWM32Hk",1
"810","http://www.youtube.com/embed/1J5vK825yZE",1
"811","http://www.youtube.com/embed/1Setc936G0U?wmode=opaque",1
"812","http://www.youtube.com/embed/4m5UdGLZDmI",1
"813","http://www.youtube.com/embed/5-WACWXoj-Q?feature=oembed",1
"814","http://www.youtube.com/embed/5wZRiu1ly-8",1
"815","http://www.youtube.com/embed/8OiFb5O4fio",1
"816","http://www.youtube.com/embed/98MbzOTblBI",1
"817","http://www.youtube.com/embed/9aAyLTCoV_I",1
"818","http://www.youtube.com/embed/AeR6Q5riSv4?rel=0",1
"819","http://www.youtube.com/embed/aKGN1e316N8?rel=0&autoplay=0&wmode=opaque",1
"820","http://www.youtube.com/embed/BvyAittaS3k",1
"821","http://www.youtube.com/embed/Bwe6RB9fhKQ",1
"822","http://www.youtube.com/embed/cJqL6BeiUuk",1
"823","http://www.youtube.com/embed/deCc53-7Qdo",1
"824","http://www.youtube.com/embed/DHX90vIvAWI",1
"825","http://www.youtube.com/embed/diDwjCJGTs8?rel=0&autoplay=0&wmode=opaque",1
"826","http://www.youtube.com/embed/dXIeUMsIkVU",1
"827","http://www.youtube.com/embed/E4aRVBZrp1A",1
"828","http://www.youtube.com/embed/EabBQomAts4",1
"829","http://www.youtube.com/embed/EKpKe_W_2dk",1
"830","http://www.youtube.com/embed/f4Yw9qjLOw8?rel=0",1
"831","http://www.youtube.com/embed/g0IXAd4wK0o",1
"832","http://www.youtube.com/embed/Gx0GxIdB-Xw",1
"833","http://www.youtube.com/embed/HA8B4f_ezSI?rel=0&autoplay=0&wmode=opaque",1
"834","http://www.youtube.com/embed/Hc4ve71D7Wc",1
"835","http://www.youtube.com/embed/htVGkYiHb4U",1
"836","http://www.youtube.com/embed/IBCCCSse2f8",1
"837","http://www.youtube.com/embed/IGH2HEgWppc",1
"838","http://www.youtube.com/embed/IGH2HEgWppc?feature=player_embedded",1
"839","http://www.youtube.com/embed/iPmFqVwsizY",1
"840","http://www.youtube.com/embed/j5qbxJI-YVk",1
"841","http://www.youtube.com/embed/jhfA7A0G9ko?rel=0",1
"842","http://www.youtube.com/embed/jo8KPQ9xF00",1
"843","http://www.youtube.com/embed/KAzmZUrRBNI?wmode=opaque",1
"844","http://www.youtube.com/embed/kecRsC5AX1E",1
"845","http://www.youtube.com/embed/kgg-zqEto_E",1
"846","http://www.youtube.com/embed/KKqolteWFQ4",1
"847","http://www.youtube.com/embed/kqNLrTRq6mU?rel=0&autoplay=0&wmode=opaque",1
"848","http://www.youtube.com/embed/KSDJJsvzpbY?rel=0&autoplay=0&wmode=opaque",1
"849","http://www.youtube.com/embed/l4PhIMxgDYA",1
"850","http://www.youtube.com/embed/m8lEOIoZ7Rc",1
"851","http://www.youtube.com/embed/MQ1KDx_UBMs",1
"852","http://www.youtube.com/embed/nAri9w7q5yc",1
"853","http://www.youtube.com/embed/NH3Zs9NLShs",1
"854","http://www.youtube.com/embed/nv9qveuzzfo",1
"855","http://www.youtube.com/embed/nWlxoQ5S9-0",1
"856","http://www.youtube.com/embed/Ohj_WczsATE",1
"857","http://www.youtube.com/embed/ormQUl4ID8w",1
"858","http://www.youtube.com/embed/P3u-EyeBRpM",1
"859","http://www.youtube.com/embed/PdeDIgfTU8U",1
"860","http://www.youtube.com/embed/PGz-AuRdCRg?rel=0",1
"861","http://www.youtube.com/embed/qKyfMINUXaY",1
"862","http://www.youtube.com/embed/R_-IcQ_kCxM",1
"863","http://www.youtube.com/embed/rrljkAwokO8?wmode=opaque",1
"864","http://www.youtube.com/embed/RT_4NIPsMCY",1
"865","http://www.youtube.com/embed/So-FMONIYRQ",1
"866","http://www.youtube.com/embed/sZLRe8o6HQE",1
"867","http://www.youtube.com/embed/ubC9BB87U60",1
"868","http://www.youtube.com/embed/ui3ZD8ZrrRI",1
"869","http://www.youtube.com/embed/UlLkVTSMEYo?wmode=opaque",1
"870","http://www.youtube.com/embed/VgtDRVG1FNs",1
"871","http://www.youtube.com/embed/vHDG5qLwWjQ",1
"872","http://www.youtube.com/embed/W-6poR4LSL4",1
"873","http://www.youtube.com/embed/wAG_njeL_5c?rel=0",1
"874","http://www.youtube.com/embed/XAh4--OYRZo",1
"875","http://www.youtube.com/embed/Xw-82EfRLZc",1
"876","http://www.youtube.com/embed/Y-ftnnT64cI",1
"877","http://www.youtube.com/embed/YEqXFo825UE",1
"878","http://www.youtube.com/embed/YETVpKSgV5U",1
"879","http://www.youtube.com/embed/ymqT88lf9RQ",1
"880","http://www.youtube.com/embed/yuMmIiMLwFI",1
"881","http://www.youtube.com/embed/Yvz9lHEz618",1
"882","http://www.youtube.com/embed/zHgD1W0Y5oc?wmode=opaque",1
"883","http://www.youtube.com/embed/zP0N1Ux_K5c",1
"884","http://www.youtube.com/embed/ZPm7LGHqBYE",1
"885","http://www.youtube.com/watch?v=_gMellulFVM",1
"886","http://www.youtube.com/watch?v=-unIOs_Yt3w",1
"887","http://www.youtube.com/watch?v=1EvChWM32Hk",1
"888","http://www.youtube.com/watch?v=1J5vK825yZE",1
"889","http://www.youtube.com/watch?v=1Setc936G0U",1
"890","http://www.youtube.com/watch?v=5wZRiu1ly-8",1
"891","http://www.youtube.com/watch?v=8OiFb5O4fio",1
"892","http://www.youtube.com/watch?v=8QUbavrDq38",1
"893","http://www.youtube.com/watch?v=98MbzOTblBI",1
"894","http://www.youtube.com/watch?v=9aAyLTCoV_I",1
"895","http://www.youtube.com/watch?v=AddGCZvkOxM",1
"896","http://www.youtube.com/watch?v=AeR6Q5riSv4",1
"897","http://www.youtube.com/watch?v=aKGN1e316N8",1
"898","http://www.youtube.com/watch?v=AuhOBKIJlSE",1
"899","http://www.youtube.com/watch?v=BvyAittaS3k",1
"900","http://www.youtube.com/watch?v=cJqL6BeiUuk",1
"901","http://www.youtube.com/watch?v=DaeYgdIKek0",1
"902","http://www.youtube.com/watch?v=deCc53-7Qdo",1
"903","http://www.youtube.com/watch?v=DHX90vIvAWI",1
"904","http://www.youtube.com/watch?v=diDwjCJGTs8",1
"905","http://www.youtube.com/watch?v=dOFyozPZMB0",1
"906","http://www.youtube.com/watch?v=dXIeUMsIkVU",1
"907","http://www.youtube.com/watch?v=E4aRVBZrp1A",1
"908","http://www.youtube.com/watch?v=EabBQomAts4",1
"909","http://www.youtube.com/watch?v=EKpKe_W_2dk",1
"910","http://www.youtube.com/watch?v=f4Yw9qjLOw8",1
"911","http://www.youtube.com/watch?v=g0IXAd4wK0o",1
"912","http://www.youtube.com/watch?v=Gx0GxIdB-Xw",1
"913","http://www.youtube.com/watch?v=HA8B4f_ezSI",1
"914","http://www.youtube.com/watch?v=Hc4ve71D7Wc",1
"915","http://www.youtube.com/watch?v=htVGkYiHb4U",1
"916","http://www.youtube.com/watch?v=IBCCCSse2f8",1
"917","http://www.youtube.com/watch?v=iPmFqVwsizY",1
"918","http://www.youtube.com/watch?v=Ir2TdfSwH8g",1
"919","http://www.youtube.com/watch?v=IybZC5p4Aqs",1
"920","http://www.youtube.com/watch?v=j5qbxJI-YVk",1
"921","http://www.youtube.com/watch?v=jhfA7A0G9ko",1
"922","http://www.youtube.com/watch?v=jo8KPQ9xF00",1
"923","http://www.youtube.com/watch?v=KAzmZUrRBNI",1
"924","http://www.youtube.com/watch?v=kecRsC5AX1E",1
"925","http://www.youtube.com/watch?v=kgg-zqEto_E",1
"926","http://www.youtube.com/watch?v=KKqolteWFQ4",1
"927","http://www.youtube.com/watch?v=kqNLrTRq6mU",1
"928","http://www.youtube.com/watch?v=l4PhIMxgDYA",1
"929","http://www.youtube.com/watch?v=m8lEOIoZ7Rc",1
"930","http://www.youtube.com/watch?v=MCFIKWipW4I",1
"931","http://www.youtube.com/watch?v=MQ1KDx_UBMs",1
"932","http://www.youtube.com/watch?v=nAri9w7q5yc",1
"933","http://www.youtube.com/watch?v=NgCeW8rhHn0",1
"934","http://www.youtube.com/watch?v=NH3Zs9NLShs",1
"935","http://www.youtube.com/watch?v=nv9qveuzzfo",1
"936","http://www.youtube.com/watch?v=nWlxoQ5S9-0",1
"937","http://www.youtube.com/watch?v=Ohj_WczsATE",1
"938","http://www.youtube.com/watch?v=ormQUl4ID8w",1
"939","http://www.youtube.com/watch?v=P3u-EyeBRpM",1
"940","http://www.youtube.com/watch?v=PdeDIgfTU8U",1
"941","http://www.youtube.com/watch?v=PGz-AuRdCRg",1
"942","http://www.youtube.com/watch?v=qKyfMINUXaY",1
"943","http://www.youtube.com/watch?v=R_-IcQ_kCxM",1
"944","http://www.youtube.com/watch?v=RgYah0aLz4g",1
"945","http://www.youtube.com/watch?v=rrljkAwokO8",1
"946","http://www.youtube.com/watch?v=RT_4NIPsMCY",1
"947","http://www.youtube.com/watch?v=So-FMONIYRQ",1
"948","http://www.youtube.com/watch?v=sOqZ-QD75sQ",1
"949","http://www.youtube.com/watch?v=sZLRe8o6HQE",1
"950","http://www.youtube.com/watch?v=tDktQB2g5s8",1
"951","http://www.youtube.com/watch?v=ubC9BB87U60",1
"952","http://www.youtube.com/watch?v=ui3ZD8ZrrRI",1
"953","http://www.youtube.com/watch?v=uKQRbTT3WeA",1
"954","http://www.youtube.com/watch?v=UlLkVTSMEYo",1
"955","http://www.youtube.com/watch?v=uR3HTqGfQYo",1
"956","http://www.youtube.com/watch?v=vHDG5qLwWjQ",1
"957","http://www.youtube.com/watch?v=W-6poR4LSL4",1
"958","http://www.youtube.com/watch?v=wAG_njeL_5c",1
"959","http://www.youtube.com/watch?v=XAh4--OYRZo",1
"960","http://www.youtube.com/watch?v=XEaPkFOQgQc",1
"961","http://www.youtube.com/watch?v=Xw-82EfRLZc",1
"962","http://www.youtube.com/watch?v=Y-ftnnT64cI",1
"963","http://www.youtube.com/watch?v=YEqXFo825UE",1
"964","http://www.youtube.com/watch?v=YETVpKSgV5U",1
"965","http://www.youtube.com/watch?v=ymqT88lf9RQ",1
"966","http://www.youtube.com/watch?v=yuMmIiMLwFI",1
"967","http://www.youtube.com/watch?v=Yvz9lHEz618",1
"968","http://www.youtube.com/watch?v=zP0N1Ux_K5c",1
"969","http://www.youtube.com/watch?v=zSQRXY-rp_M",1
"970","https://www.youtube.com/embed/UKhLIcWouRQ?feature=player_detailpage",1
