"","...1","URL","Domaine","Date","Heure","Type","Code_Reponse","Hash","NA","ID_WARC","ID_crawl"
"1",1,"20minutes.fr/france/diaporama-14665-finis-applaudissements-place-rassemblements-soignants-rue","https://20minutes.fr","18-06-2020",09:37:20,"text/html",200,"IUGTRSQOCLM4LMMQ2LL365SCMF35VGYL","-",233319882,"BnF-33559-28-20200618092934-00002-ciblee_2020_fogg124.bnf.fr.warc.gz"
"2",2,"20minutes.fr/france/diaporama-14665-photo-1133369-finis-applaudissements-place-rassemblements-soignants-rue","https://20minutes.fr","18-06-2020",09:37:32,"text/html",200,"CXLRNOD4ZLSC7APQ44JIXEB2J7GJJ652","-",237183428,"BnF-33559-28-20200618092934-00002-ciblee_2020_fogg124.bnf.fr.warc.gz"
"3",3,"20minutes.fr/france/diaporama-14665-photo-1133381-finis-applaudissements-place-rassemblements-soignants-rue","https://20minutes.fr","18-06-2020",11:13:35,"text/html",200,"Q76R2TV2K7QW7AIK2YF7R7IBKFORI23B","-",201081683,"BnF-33559-28-20200618105804-00004-ciblee_2020_fogg124.bnf.fr.warc.gz"
"4",4,"20minutes.fr/france/diaporama-14665-photo-1133389-finis-applaudissements-place-rassemblements-soignants-rue","https://20minutes.fr","24-06-2020",21:57:44,"text/html",200,"MZTXMXHD5C764S6GPETSZ24HMQOJRTV7","-",506662451,"BnF-33596-11-20200624215406-00123-ciblee_2020_fogg135.bnf.fr.warc.gz"
"5",5,"20minutes.fr/france/diaporama-14665-photo-1133401-finis-applaudissements-place-rassemblements-soignants-rue","https://20minutes.fr","18-06-2020",09:37:45,"text/html",200,"5YMAZLIQYOL5KRWI2EVBPNLRPH4T7Q7O","-",241133470,"BnF-33559-28-20200618092934-00002-ciblee_2020_fogg124.bnf.fr.warc.gz"
"6",6,"actu.fr/bretagne/fougeres_35115/video-soutien-soignants-applaudissements-bruits-divers-luitre_32420106.html","https://actu.fr","25-03-2020",08:20:14,"text/html",200,"HA2G2T3HIT3EWGVQZ3MKTAB6ISVLVVRI","-",590444471,"BnF-32972-11-20200325081030-00200-ciblee_2020_fogg122.bnf.fr.warc.gz"
"7",7,"actu.fr/bretagne/fougeres_35115/video-soutien-soignants-applaudissements-bruits-divers-luitre_32420106.html/amp","https://actu.fr","25-03-2020",08:21:37,"text/html",200,"AET3X3R6GFNJQRWQXCGS2E3M26VGDJMW","-",622546076,"BnF-32972-11-20200325081030-00200-ciblee_2020_fogg122.bnf.fr.warc.gz"
"8",8,"actu.fr/ile-de-france/saint-denis_93066/videos-seine-saint-denis-applaudissements-bonbons-les-policiers-a-la-rencontre-des-soignants_34391907.html","https://actu.fr","24-06-2020",23:15:31,"text/html",200,"TN7LTPGK7LWEN6U7SNQJKOREANY5YHPD","-",15608582,"BnF-33596-11-20200624231522-00138-ciblee_2020_fogg135.bnf.fr.warc.gz"
"9",9,"actu.fr/ile-de-france/saint-denis_93066/videos-seine-saint-denis-applaudissements-bonbons-les-policiers-a-la-rencontre-des-soignants_34391907.html/amp","https://actu.fr","24-06-2020",23:15:35,"text/html",200,"VQVLUIK2NGN4FSXLOV2GWSUCMQPRPJZ4","-",20956991,"BnF-33596-11-20200624231522-00138-ciblee_2020_fogg135.bnf.fr.warc.gz"
"10",10,"actu.fr/societe/coronavirus/coronavirus-danses-applaudissements-venez-faire-fete-balcons-soutenir-soignants_32386068.html","https://actu.fr","26-03-2020",09:40:53,"text/html",200,"24HVAWUWCMWUNHHFWBLS4GQTZ2OAER3Z","-",751970290,"BnF-32972-11-20200326092921-00281-ciblee_2020_fogg122.bnf.fr.warc.gz"
"11",11,"actu.fr/societe/coronavirus/coronavirus-danses-applaudissements-venez-faire-fete-balcons-soutenir-soignants_32386068.html/amp","https://actu.fr","26-03-2020",09:41:24,"text/html",200,"QJYVF67G7KWFFGTEXEPZEE2Q4LZCJWUS","-",764635686,"BnF-32972-11-20200326092921-00281-ciblee_2020_fogg122.bnf.fr.warc.gz"
"12",12,"alt-rev.com/2020/03/26/applaudissements-pour-les-soignants-a-20h-la-fausse-bonne-idee/","https://alt-rev.com","03-06-2020",15:34:36,"text/html",200,"4M6UBK6GJQXJJKDDKW53K3TGUNTELFBF","-",375372623,"BnF-33419-12-20200603151723-00107-ciblee_2020_fogg139.bnf.fr.warc.gz"
"13",13,"alt-rev.com/2020/03/26/applaudissements-pour-les-soignants-a-20h-la-fausse-bonne-idee/embed/","https://alt-rev.com","02-07-2020",07:24:40,"text/html",200,"VE6OQWXKOYKPKIS6C4XDYH4PKDAEZFRE","-",779399045,"BnF-33654-12-20200702070551-00200-ciblee_2020_fogg133.bnf.fr.warc.gz"
"14",15,"alt-rev.com/wp-json/oembed/1.0/embed?url=https://alt-rev.com/2020/03/26/applaudissements-pour-les-soignants-a-20h-la-fausse-bonne-idee/&format=xml","https://alt-rev.com","03-06-2020",15:35:27,"text/xml",200,"U4S7PK5AADKJPAVV65QTOEIKRI73MBIR","-",424312539,"BnF-33419-12-20200603151723-00107-ciblee_2020_fogg139.bnf.fr.warc.gz"
"15",16,"amp.ouest-france.fr/bretagne/brest-29200/video-des-milliers-d-applaudissements-en-live-pour-les-soignants-brest-6871298","https://amp.ouest-france.fr","17-06-2020",13:35:52,"text/html",200,"RUIED5HQOG2JQKOY63VKRP54ML4TIZHJ","-",535771737,"BnF-33549-28-20200617130203-00004-ciblee_2020_fogg117.bnf.fr.warc.gz"
"16",17,"amp.ouest-france.fr/bretagne/lesneven-29260/lesneven-les-voisins-saluent-les-soignants-en-chansons-et-par-leurs-applaudissements-6816119","https://amp.ouest-france.fr","30-04-2020",05:36:40,"text/html",200,"ECFIOYMVPYTZCOX44XA3LWS3POCROIGQ","-",106015277,"BnF-33178-11-20200430052547-00294-ciblee_2020_fogg129.bnf.fr.warc.gz"
"17",18,"amp.ouest-france.fr/sante/virus/coronavirus/confinement/saumur-des-applaudissements-en-hommage-aux-soignants-fcaef5dc-6b5c-11ea-bc41-e9ce43d001b4","https://amp.ouest-france.fr","22-03-2020",13:08:04,"text/html",200,"OVEPC53434PCPT3O7OVWDEJGCSNA3JSC","-",615049881,"BnF-32964-28-20200322114257-00003-ciblee_2020_fogg129.bnf.fr.warc.gz"
"18",19,"bienpublic.com/amp/faits-divers-justice/2020/04/14/une-aide-soignante-d-ehpad-blessee-par-un-tir-au-plomb-lors-des-applaudissements","https://bienpublic.com","15-04-2020",09:52:41,"text/html",200,"IHFNK7CSFRIXEEGNTSJIGFCJFRRQC72D","-",241038032,"BnF-33115-28-20200415094830-00004-ciblee_2020_fogg121.bnf.fr.warc.gz"
"19",20,"bienpublic.com/faits-divers-justice/2020/04/14/une-aide-soignante-d-ehpad-blessee-par-un-tir-au-plomb-lors-des-applaudissements","https://bienpublic.com","15-04-2020",09:52:20,"text/html",200,"6POLKJVQKPDX27GXNHCEETOEH5CM5SX7","-",184991766,"BnF-33115-28-20200415094830-00004-ciblee_2020_fogg121.bnf.fr.warc.gz"
"20",21,"blogs.mediapart.fr/theo-portais/blog/230320/applaudissements-pour-les-soignants-20h-la-fausse-bonne-idee","https://blogs.mediapart.fr","02-04-2020",06:02:54,"text/html",200,"TJJINMOCYSM3YFSGPSA7G3O4JK2RAXFV","-",963562887,"BnF-33039-12-20200402054225-00073-ciblee_2020_fogg129.bnf.fr.warc.gz"
"21",81,"centrepresseaveyron.fr/2020/03/19/aveyron-les-premiers-applaudissements-pour-le-personnel-soignant-se-font-entendre,8808951.php","https://centrepresseaveyron.fr","20-03-2020",11:35:17,"text/html",200,"G6XVR45VD6KP33LKRVXOUWPELD4LFZJP","-",290162167,"BnF-32950-28-20200320111953-00003-ciblee_2020_fogg120.bnf.fr.warc.gz"
"22",82,"centrepresseaveyron.fr/amp/2020/03/19/aveyron-les-premiers-applaudissements-pour-le-personnel-soignant-se-font-entendre,8808951.php","https://centrepresseaveyron.fr","20-03-2020",11:35:27,"text/html",200,"7GZL67E4THOKNOJLQZVXIG5AX3GLUKMY","-",292798105,"BnF-32950-28-20200320111953-00003-ciblee_2020_fogg120.bnf.fr.warc.gz"
"23",83,"charentelibre.fr/2020/03/19/applaudissements-aux-fenetres-pour-les-soignants-qui-le-fait-en-charente,3576637.amp.html","https://charentelibre.fr","24-03-2020",02:16:53,"text/html",200,"GGGZVF3B2IKK2OZZOOTWF5QLRFE5MSVM","-",720945853,"BnF-32972-11-20200324015852-00066-ciblee_2020_fogg122.bnf.fr.warc.gz"
"24",84,"charentelibre.fr/2020/03/19/applaudissements-aux-fenetres-pour-les-soignants-qui-le-fait-en-charente,3576637.php","https://charentelibre.fr","24-03-2020",02:15:41,"text/html",200,"HFNEEOABFONJ7NEJFKYERCJDCBNYEPAZ","-",672129981,"BnF-32972-11-20200324015852-00066-ciblee_2020_fogg122.bnf.fr.warc.gz"
"25",85,"claap.fr/2020/03/montpellier-5-mn-dapplaudissement-tous-les-soirs-pour-les-soignants/","https://claap.fr","06-04-2020",12:11:45,"text/html",200,"EKS3EWTBYZEGDSUD5YFP3Y2IGNDC455P","-",465493960,"BnF-33067-11-20200406120216-00005-ciblee_2020_fogg121.bnf.fr.warc.gz"
"26",86,"claap.fr/2020/03/montpellier-5-mn-dapplaudissement-tous-les-soirs-pour-les-soignants/embed/","https://claap.fr","02-07-2020",03:25:30,"text/html",200,"I6EAPPECDYTUIYVK2QCEZRHTY53DR6XX","-",168949641,"BnF-33656-12-20200702031356-00113-ciblee_2020_fogg116.bnf.fr.warc.gz"
"27",88,"claap.fr/wp-json/oembed/1.0/embed?url=https://claap.fr/2020/03/montpellier-5-mn-dapplaudissement-tous-les-soirs-pour-les-soignants/&format=xml","https://claap.fr","06-04-2020",12:13:00,"text/xml",200,"M3SFM242FWMZTLKKMYOTJE3STSS3N64R","-",511884477,"BnF-33067-11-20200406120216-00005-ciblee_2020_fogg121.bnf.fr.warc.gz"
"28",89,"communcommune.com/2020/06/les-applaudissements-a-20h-ont-disparu-tout-comme-la-reconnaissance-de-l-etat-pour-le-personnel-soignant.html","http://communcommune.com","01-07-2020",17:51:44,"text/html",200,"XEMLEBYB2DZP7GON3VHACAYXHMQEVB66","-",954358617,"BnF-33654-12-20200701174631-00116-ciblee_2020_fogg133.bnf.fr.warc.gz"
"29",90,"coronavirus.politologue.com/actualite/actu.finis-les-applaudissements-les-soignants-de-retour-dans-la-rue-apres-le-covid-19.Aqwz","https://coronavirus.politologue.com","01-07-2020",20:58:27,"text/html",200,"ZCHQCOLV3FMZYFWE5WMHNHZL5XMEAMLC","-",409837950,"BnF-33657-12-20200701200057-00027-ciblee_2020_fogg139.bnf.fr.warc.gz"
"30",91,"corsematin.com/articles/ajaccio-un-agent-des-douanes-excede-par-le-bruit-lors-des-applaudissements-aux-soignants-tire-en-lair-108899","https://corsematin.com","18-04-2020",09:07:05,"text/html",200,"2MSPI6EQM5BMSHG24OF7BYBRH3LJGFI7","-",51312914,"BnF-33130-28-20200418090333-00001-ciblee_2020_fogg134.bnf.fr.warc.gz"
"31",92,"divergence-images.com/marc-chaumeil/reportages/applaudissements-de-soutien-aux-soignants-MC2661/","http://divergence-images.com","03-05-2020",02:50:54,"text/html",200,"K2IRGUKWJETXBKZEC5VZPBRYMJSRRDAY","-",6819425,"BnF-33204-12-20200503025044-00197-ciblee_2020_fogg121.bnf.fr.warc.gz"
"32",93,"divergence-images.com/marc-chaumeil/reportages/applaudissements-de-soutien-aux-soignants-MC2665/","http://divergence-images.com","03-05-2020",02:49:30,"text/html",200,"YNPJD2FBMTQZGBH5M6RGAUAFFDSDMJDV","-",917804212,"BnF-33204-12-20200503023131-00196-ciblee_2020_fogg121.bnf.fr.warc.gz"
"33",94,"divergence-images.com/marc-chaumeil/reportages/applaudissements-pour-les-soignants-confinement-MC2653/","http://divergence-images.com","03-05-2020",02:55:04,"text/html",200,"PU5FRZH5A727NKC6AZNJWQYKJ7SXA5IB","-",421642791,"BnF-33204-12-20200503025044-00197-ciblee_2020_fogg121.bnf.fr.warc.gz"
"34",95,"divergence-images.com/marc-chaumeil/reportages/applaudissements-pour-les-soignants-du-coronavirus-MC2605/","http://divergence-images.com","02-04-2020",21:36:17,"text/html",200,"SDETFN75JTM7JSCEGBSNJQODOUZZP5M6","-",77965800,"BnF-33039-12-20200402213405-00121-ciblee_2020_fogg129.bnf.fr.warc.gz"
"35",96,"divergence-images.com/marc-chaumeil/reportages/applaudissements-pour-soutenir-les-soignants-MC2667/","http://divergence-images.com","03-05-2020",02:48:42,"text/html",200,"E3LEX3YWGMW55BZOVIBLVMNOXS2B3TLB","-",851825984,"BnF-33204-12-20200503023131-00196-ciblee_2020_fogg121.bnf.fr.warc.gz"
"36",97,"dna.fr/amp/faits-divers-justice/2020/04/14/une-aide-soignante-d-ehpad-blessee-par-un-tir-au-plomb-lors-des-applaudissements","https://dna.fr","15-04-2020",10:09:24,"text/html",200,"M5UXP4M2P2BCY3XHP43VCGXQ4WUWZQBF","-",850386708,"BnF-33115-28-20200415094830-00004-ciblee_2020_fogg121.bnf.fr.warc.gz"
"37",98,"dna.fr/faits-divers-justice/2020/04/14/une-aide-soignante-d-ehpad-blessee-par-un-tir-au-plomb-lors-des-applaudissements","https://dna.fr","15-04-2020",10:09:09,"text/html",200,"EVRA2FA3FAIKJTHFPSSR6N5GZTN4TIVP","-",845015840,"BnF-33115-28-20200415094830-00004-ciblee_2020_fogg121.bnf.fr.warc.gz"
"38",99,"enlargeyourparis.blogs.liberation.fr/2020/05/10/deux-mois-dapplaudissements-aux-soignants-vus-par-la-photographe-jeromine-derigny/","http://enlargeyourparis.blogs.liberation.fr","11-05-2020",10:38:54,"text/html",200,"57RCE3VPRYBUJ4M4H5FALZGOVWS5YHFF","-",681547363,"BnF-33265-28-20200511100951-00002-ciblee_2020_fogg134.bnf.fr.warc.gz"
"39",100,"estrepublicain.fr/actualite/2020/04/06/nancy-concert-et-applaudissements-en-soutien-aux-personnels-soignants-face-a-la-covid-19","https://estrepublicain.fr","07-04-2020",09:24:16,"text/html",200,"U7YFZBCPYBIBA2ZFX2ABYSQRE3Q5L225","-",803318245,"BnF-33072-28-20200407083952-00001-ciblee_2020_fogg126.bnf.fr.warc.gz"
"40",101,"estrepublicain.fr/amp/actualite/2020/04/06/nancy-concert-et-applaudissements-en-soutien-aux-personnels-soignants-face-a-la-covid-19","https://estrepublicain.fr","07-04-2020",09:24:49,"text/html",200,"VOHZWGU6W5VR4AGUWB2Y4GO7QZJTHUYW","-",813582710,"BnF-33072-28-20200407083952-00001-ciblee_2020_fogg126.bnf.fr.warc.gz"
"41",102,"estrepublicain.fr/amp/faits-divers-justice/2020/04/14/une-aide-soignante-d-ehpad-blessee-par-un-tir-au-plomb-lors-des-applaudissements","https://estrepublicain.fr","15-04-2020",10:13:46,"text/html",200,"6C33TEXDA53ZBDCD6ZHHH6V24U6G62BB","-",202470874,"BnF-33115-28-20200415101147-00005-ciblee_2020_fogg121.bnf.fr.warc.gz"
"42",103,"estrepublicain.fr/faits-divers-justice/2020/04/14/une-aide-soignante-d-ehpad-blessee-par-un-tir-au-plomb-lors-des-applaudissements","https://estrepublicain.fr","15-04-2020",10:13:31,"text/html",200,"R7OKYHRIGIT34UJ5EDGR2MWFQYO4QGIR","-",198400561,"BnF-33115-28-20200415101147-00005-ciblee_2020_fogg121.bnf.fr.warc.gz"
"43",104,"facebook.com/VilledeMetzOfficiel/videos/applaudissements-aux-soignants-/671841620292216/","https://facebook.com","04-04-2020",01:28:00,"text/html",200,"5AS3IZWEXG3A5AFYKTCNM2DK5CDRPOLA","-",981287371,"BnF-33025-11-20200403233420-00177-ciblee_2020_fogg136.bnf.fr.warc.gz"
"44",105,"facebook.com/actufr.paris/videos/-applaudissements-pour-nos-soignants-%C3%A0-m%C3%A9nilmontant-et-ailleurs-actufrp32344444/145105150133823/","https://facebook.com","03-04-2020",11:51:33,"text/html",200,"2TGJRRMDNXS3NNYWLBDA7SMY6MVJNA3Y","-",165664619,"BnF-33025-11-20200403114733-00168-ciblee_2020_fogg136.bnf.fr.warc.gz"
"45",106,"facebook.com/plugins/like.php?app_id=218289468231153&href=http://www.20minutes.fr/france/diaporama-14665-finis-applaudissements-place-rassemblements-soignants-rue&send=false&layout=button_count&width=120&show_faces=false&action=like&colorscheme=light&font&height=21","https://facebook.com","18-06-2020",09:37:38,"text/html",200,"PQ4B7JDZWYZGG4D74VOUMV6WA7UNZTFV","-",238902545,"BnF-33559-28-20200618092934-00002-ciblee_2020_fogg124.bnf.fr.warc.gz"
"46",107,"facebook.com/plugins/like.php?href=http://www.20minutes.fr/france/diaporama-14665-photo-1133369-finis-applaudissements-place-rassemblements-soignants-rue&send=true&layout=button_count&width=120&show_faces=false&action=like&colorscheme=light&font&height=20&ref=diaporama","https://facebook.com","18-06-2020",09:37:28,"text/html",200,"FFSM7DHXAMWEVBSU2JWIA5UVB2VFLBY3","-",236000162,"BnF-33559-28-20200618092934-00002-ciblee_2020_fogg124.bnf.fr.warc.gz"
"47",108,"facebook.com/plugins/like.php?href=http://www.20minutes.fr/france/diaporama-14665-photo-1133381-finis-applaudissements-place-rassemblements-soignants-rue&send=true&layout=button_count&width=120&show_faces=false&action=like&colorscheme=light&font&height=20&ref=diaporama","https://facebook.com","01-07-2020",17:55:38,"text/html",200,"J3OX2CMBTIGIIE3C4NE4QKHCE5UV47KY","-",815431011,"BnF-33652-12-20200701174830-00107-ciblee_2020_fogg136.bnf.fr.warc.gz"
"48",109,"facebook.com/plugins/like.php?href=http://www.20minutes.fr/france/diaporama-14665-photo-1133401-finis-applaudissements-place-rassemblements-soignants-rue&send=true&layout=button_count&width=120&show_faces=false&action=like&colorscheme=light&font&height=20&ref=diaporama","https://facebook.com","18-06-2020",09:38:17,"text/html",200,"Y66NMF34Z45HZWYDP323NPPGHZJWMYY4","-",254138859,"BnF-33559-28-20200618092934-00002-ciblee_2020_fogg124.bnf.fr.warc.gz"
"49",110,"facebook.com/plugins/like.php?href=http://www.revolutionpermanente.fr/16-juin-Apres-les-applaudissements-manifester-aux-cotes-des-soignants&layout=button_count&show_faces=true&width=120&action=like&font=arial&colorscheme=light","https://facebook.com","01-07-2020",17:42:58,"text/html",200,"3LAHLTGFP6VDC2FA2JIUAUGIOTNQV43L","-",369727337,"BnF-33654-12-20200701174035-00115-ciblee_2020_fogg133.bnf.fr.warc.gz"
"50",111,"factuel.info/abonne/comite-sante-publique-franche-comte/blog/apres-applaudissements-pour-soignantes-mobilisation","http://factuel.info","01-07-2020",10:30:53,"text/html",200,"GKXONUXNE343R5W6UKM36PRW5QTGFERN","-",957929111,"BnF-33652-12-20200701102527-00013-ciblee_2020_fogg136.bnf.fr.warc.gz"
"51",112,"fr.news.yahoo.com/amphtml/police-soignants-manifestations-applaudissements-192511704.html","https://fr.news.yahoo.com","17-06-2020",11:31:34,"text/html",200,"FYXXCKW4SMQDI4EEVEVGLHC6ZGVVJLP3","-",719954402,"BnF-33549-28-20200617105416-00001-ciblee_2020_fogg117.bnf.fr.warc.gz"
"52",113,"fr.news.yahoo.com/police-soignants-manifestations-applaudissements-192511704.html","https://fr.news.yahoo.com","17-06-2020",11:31:00,"text/html",200,"FVQ76A73HUMWZI6C6GGZ6WJYLDQBVG2H","-",707331846,"BnF-33549-28-20200617105416-00001-ciblee_2020_fogg117.bnf.fr.warc.gz"
"53",121,"francebleu.fr/amp/infos/societe/coronavirus-en-alsace-des-applaudissements-a-20-heures-pour-le-personnel-soignant-1584543419","https://francebleu.fr","26-03-2020",04:44:39,"text/html",200,"MR6VUYKEGMK7H54FXQESKQAATWK4ZMCH","-",767474980,"BnF-32972-11-20200326042343-00266-ciblee_2020_fogg122.bnf.fr.warc.gz"
"54",122,"francebleu.fr/infos/societe/coronavirus-en-alsace-des-applaudissements-a-20-heures-pour-le-personnel-soignant-1584543419","https://francebleu.fr","26-03-2020",04:44:08,"text/html",200,"K5PW46WVSX33HBPG5HG5UGX3BWMFCKEP","-",720282652,"BnF-32972-11-20200326042343-00266-ciblee_2020_fogg122.bnf.fr.warc.gz"
"55",123,"huffingtonpost.fr/amp/entry/confinement-applaudissements-soignants_fr_5e71e7c1c5b63c3b6487500a/","https://huffingtonpost.fr","19-03-2020",11:17:32,"text/html",200,"3Z6TZDFDJICCMDAJ6IOQVEIACIF7F44L","-",39903218,"BnF-32943-28-20200319111510-00003-ciblee_2020_fogg128.bnf.fr.warc.gz"
"56",124,"huffingtonpost.fr/amp/entry/police-soignants-manifestations-applaudissements_fr_5ee91341c5b67912c6a84a78/","https://huffingtonpost.fr","17-06-2020",12:40:32,"text/html",200,"QU4RZVALCANRR3OHQ5H2LET5KVETAASB","-",664687123,"BnF-33549-28-20200617121022-00003-ciblee_2020_fogg117.bnf.fr.warc.gz"
"57",125,"huffingtonpost.fr/entry/confinement-applaudissements-soignants_fr_5e71e7c1c5b63c3b6487500a","https://huffingtonpost.fr","19-03-2020",11:17:16,"text/html",200,"BZLUKY4ZCT7B44UUET62LXZSLYBWWF4H","-",36080812,"BnF-32943-28-20200319111510-00003-ciblee_2020_fogg128.bnf.fr.warc.gz"
"58",126,"huffingtonpost.fr/entry/confinement-applaudissements-soignants_fr_5e71e7c1c5b63c3b6487500a?utm_hp_ref=fr-homepage","https://huffingtonpost.fr","19-03-2020",11:16:59,"text/html",200,"BZLUKY4ZCT7B44UUET62LXZSLYBWWF4H","-",31470921,"BnF-32943-28-20200319111510-00003-ciblee_2020_fogg128.bnf.fr.warc.gz"
"59",127,"huffingtonpost.fr/entry/confinement-applaudissements-soignants_fr_5e71e7c1c5b63c3b6487500a?utm_hp_ref=fr-le-bon-lien","https://huffingtonpost.fr","26-03-2020",04:55:21,"text/html",200,"GBZ37EHPCX66EJR6S4CD26F7YLVAQ2SD","-",81763430,"BnF-32972-11-20200326045248-00267-ciblee_2020_fogg122.bnf.fr.warc.gz"
"60",128,"huffingtonpost.fr/entry/police-soignants-manifestations-applaudissements_fr_5ee91341c5b67912c6a84a78","https://huffingtonpost.fr","17-06-2020",12:40:03,"text/html",200,"ZWTFMMZ32CGTDRC6P4FYKPRCYUGJZDCB","-",649959958,"BnF-33549-28-20200617121022-00003-ciblee_2020_fogg117.bnf.fr.warc.gz"
"61",129,"huffingtonpost.fr/entry/police-soignants-manifestations-applaudissements_fr_5ee91341c5b67912c6a84a78?utm_hp_ref=fr-homepage","https://huffingtonpost.fr","17-06-2020",12:39:36,"text/html",200,"MZ3RGO6B4RTFS4CZFLE3GVB7KCH5I65Z","-",645019775,"BnF-33549-28-20200617121022-00003-ciblee_2020_fogg117.bnf.fr.warc.gz"
"62",130,"huffingtonpost.fr/entry/police-soignants-manifestations-applaudissements_fr_5ee91341c5b67912c6a84a78?utm_hp_ref=fr-police","https://huffingtonpost.fr","24-06-2020",14:39:26,"text/html",200,"3APRFKER77UK4TPCKU7ZXFDKDLPAIJPV","-",664185376,"BnF-33596-11-20200624143545-00007-ciblee_2020_fogg135.bnf.fr.warc.gz"
"63",135,"infos-dijon.com/news/cote-d-or/cote-d-or/cote-d-or-apres-les-applaudissements-les-manifestations-de-soutien-aux-soignants-print.html","https://infos-dijon.com","16-06-2020",18:23:08,"text/html",200,"X4V4PN6NX3NZTVWOBUR2JJUJQ7HH7VDW","-",828150898,"BnF-33532-11-20200616172013-00084-ciblee_2020_fogg134.bnf.fr.warc.gz"
"64",136,"infos-dijon.com/news/cote-d-or/cote-d-or/cote-d-or-apres-les-applaudissements-les-manifestations-de-soutien-aux-soignants.html","https://infos-dijon.com","15-06-2020",14:48:03,"text/html",200,"MDO5F6N3A7NF2HPE5D23DSNHCGQ64QDK","-",518734809,"BnF-33532-11-20200615140525-00002-ciblee_2020_fogg134.bnf.fr.warc.gz"
"65",137,"jeanyvesnau.com/2020/05/11/soignants-morts-du-covid-les-applaudissements-survivront-ils-longtemps-au-deconfinement/","https://jeanyvesnau.com","01-06-2020",15:19:45,"text/html",200,"C2WVAHYVU27DAFH5XQYM5NGLES2KLPUY","-",454725403,"BnF-33418-12-20200601151123-00013-ciblee_2020_fogg125.bnf.fr.warc.gz"
"66",138,"jeanyvesnau.com/2020/05/11/soignants-morts-du-covid-les-applaudissements-survivront-ils-longtemps-au-deconfinement/amp/","https://jeanyvesnau.com","01-06-2020",16:50:54,"text/html",200,"6TDDJWIAEAEJEYZVZ2RA6QQC63LTZVAK","-",685411449,"BnF-33418-12-20200601163410-00016-ciblee_2020_fogg125.bnf.fr.warc.gz"
"67",139,"jeuxvideo.com/forums/42-51-62950344-1-0-1-0-vous-avez-manque-combien-de-soirs-d-applaudissement-des-soignants.htm","http://jeuxvideo.com","01-05-2020",09:18:31,"text/html",200,"X6VJE6EKXVDAFPLQYHYYBJT2GMBBKNEC","-",470409819,"BnF-33205-12-20200501090924-00000-ciblee_2020_fogg132.bnf.fr.warc.gz"
"68",140,"jeuxvideo.com/forums/42-51-62950344-2-0-1-0-vous-avez-manque-combien-de-soirs-d-applaudissement-des-soignants.htm","http://jeuxvideo.com","01-05-2020",09:18:55,"text/html",200,"P74MARABLG3H6F6PXIZVAHOYD53RR6BC","-",498842567,"BnF-33205-12-20200501090924-00000-ciblee_2020_fogg132.bnf.fr.warc.gz"
"69",141,"jeuxvideo.com/forums/42-51-62950344-3-0-1-0-vous-avez-manque-combien-de-soirs-d-applaudissement-des-soignants.htm","http://jeuxvideo.com","01-05-2020",12:37:13,"text/html",200,"H4OZUCD4Y2MBFAEC35PGUBJRRJDWJB43","-",33195355,"BnF-33205-12-20200501123644-00016-ciblee_2020_fogg132.bnf.fr.warc.gz"
"70",142,"journal-lepetitcorse.fr/2020/03/17/hommage-aux-soignants-les-applaudissements-se-sont-faits-entendre-dans-les-rues-dajaccio/","https://journal-lepetitcorse.fr","21-04-2020",03:40:32,"text/html",200,"WGVSXNGQEMVPIAWB2AU4RAOKN6SULS5S","-",596820209,"BnF-33141-11-20200421030225-00018-ciblee_2020_fogg133.bnf.fr.warc.gz"
"71",144,"journal-lepetitcorse.fr/wp-json/oembed/1.0/embed?url=https://journal-lepetitcorse.fr/2020/03/17/hommage-aux-soignants-les-applaudissements-se-sont-faits-entendre-dans-les-rues-dajaccio/&format=xml","https://journal-lepetitcorse.fr","21-04-2020",03:42:26,"text/xml",200,"PO336LELMIJGJNE7V3LQWWE46DO4AVCX","-",627136171,"BnF-33141-11-20200421030225-00018-ciblee_2020_fogg133.bnf.fr.warc.gz"
"72",145,"laprovence.com/actu/en-direct/5964513/corse-excede-par-le-bruit-lors-des-applaudissements-aux-soignants-un-agent-des-douanes-tire-en-lair.html","https://laprovence.com","18-04-2020",10:52:37,"text/html",200,"XXDVVA5TIBRMPXIGNJ5BXQV2NVP4F4WI","-",50434231,"BnF-33130-28-20200418104959-00003-ciblee_2020_fogg134.bnf.fr.warc.gz"
"73",146,"laprovence.com/actu/en-direct/5964513/corse-excede-par-le-bruit-lors-des-applaudissements-aux-soignants-un-agent-des-douanes-tire-en-lair.html?amp","https://laprovence.com","18-04-2020",10:53:09,"text/html",200,"J7UGZIECUZ4QW3XQT4SGIXHIIH5MLNOM","-",57357366,"BnF-33130-28-20200418104959-00003-ciblee_2020_fogg134.bnf.fr.warc.gz"
"74",147,"lavoixdunord.fr/732639/article/2020-03-28/hazebrouck-aussi-des-applaudissements-20-h-pour-remercier-les-soignants","https://lavoixdunord.fr","04-04-2020",11:19:21,"text/html",200,"CHT7UQTU6ENFFBFIPXMC3XKTJZZUMZM5","-",663633548,"BnF-33025-11-20200404075341-00181-ciblee_2020_fogg136.bnf.fr.warc.gz"
"75",148,"lavoixdunord.fr/732639/article/2020-03-28/hazebrouck-aussi-des-applaudissements-20-h-pour-remercier-les-soignants?amp","https://lavoixdunord.fr","04-04-2020",11:20:02,"text/html",200,"G66IZDUSTFVAZZ25GM4E2ISDXHEPQUU5","-",664776619,"BnF-33025-11-20200404075341-00181-ciblee_2020_fogg136.bnf.fr.warc.gz"
"76",149,"ledauphine.com/amp/faits-divers-justice/2020/04/14/une-aide-soignante-d-ehpad-blessee-par-un-tir-au-plomb-lors-des-applaudissements","https://ledauphine.com","15-04-2020",10:15:02,"text/html",200,"GVO25CKB666BYFCQZCMJUUDRWOPDRJTC","-",436258498,"BnF-33115-28-20200415101147-00005-ciblee_2020_fogg121.bnf.fr.warc.gz"
"77",150,"ledauphine.com/faits-divers-justice/2020/04/14/une-aide-soignante-d-ehpad-blessee-par-un-tir-au-plomb-lors-des-applaudissements","https://ledauphine.com","15-04-2020",10:14:46,"text/html",200,"KCWZUROOVX2YWY7XARUPJEE3SIYR7MYA","-",326636619,"BnF-33115-28-20200415101147-00005-ciblee_2020_fogg121.bnf.fr.warc.gz"
"78",151,"lepetitjournal.com/londres/derniers-applaudissements-pour-le-personnel-soignant-ce-jeudi-281263","https://lepetitjournal.com","30-05-2020",14:44:38,"text/html",200,"RATEBUG4DT2D53ISPK6VNDNV66HPD6SE","-",92673521,"BnF-33370-11-20200530144029-00612-ciblee_2020_fogg115.bnf.fr.warc.gz"
"79",152,"leprogres.fr/amp/faits-divers-justice/2020/04/14/une-aide-soignante-d-ehpad-blessee-par-un-tir-au-plomb-lors-des-applaudissements","https://leprogres.fr","15-04-2020",09:54:36,"text/html",200,"OBO6A7GCGHU3ODF54DHZVX2UW7VO6457","-",294123545,"BnF-33115-28-20200415094830-00004-ciblee_2020_fogg121.bnf.fr.warc.gz"
"80",153,"leprogres.fr/amp/rhone/2020/03/19/les-lyonnais-au-rendez-vous-pour-applaudir-les-soignants-a-20-heures-coronavirus-applaudissements-lyon","https://leprogres.fr","20-03-2020",10:19:46,"text/html",200,"3VPSGO6PXCJUN76CRJOYG3YCSU5HO74D","-",712819141,"BnF-32950-28-20200320094532-00001-ciblee_2020_fogg120.bnf.fr.warc.gz"
"81",154,"leprogres.fr/faits-divers-justice/2020/04/14/une-aide-soignante-d-ehpad-blessee-par-un-tir-au-plomb-lors-des-applaudissements","https://leprogres.fr","15-04-2020",09:54:15,"text/html",200,"QR3VBXJNCNNAWHSZTREEWEUSZFE5ON5D","-",282215317,"BnF-33115-28-20200415094830-00004-ciblee_2020_fogg121.bnf.fr.warc.gz"
"82",155,"leprogres.fr/rhone/2020/03/19/les-lyonnais-au-rendez-vous-pour-applaudir-les-soignants-a-20-heures-coronavirus-applaudissements-lyon","https://leprogres.fr","20-03-2020",10:19:24,"text/html",200,"KMRS3BXYEDXCEAM3RETYDHGAIFZ4Q3RN","-",704739022,"BnF-32950-28-20200320094532-00001-ciblee_2020_fogg120.bnf.fr.warc.gz"
"83",156,"liberation.fr/amphtml/france/2020/05/17/soignants-apres-les-applaudissements-les-augmentations_1788679","https://liberation.fr","22-05-2020",23:12:06,"text/html",200,"WTXI4AK7R52C5V24RNGSX27JBH7ECJF2","-",535478724,"BnF-33326-11-20200522222238-00204-ciblee_2020_fogg137.bnf.fr.warc.gz"
"84",157,"liberation.fr/france/2020/05/17/soignants-apres-les-applaudissements-les-augmentations_1788679","https://liberation.fr","22-05-2020",23:11:08,"text/html",200,"CURSN2SDKETDRTRMNCYXBMWI24JM4ENQ","-",525401229,"BnF-33326-11-20200522222238-00204-ciblee_2020_fogg137.bnf.fr.warc.gz"
"85",158,"logs1286.xiti.com/hit.xiti?s=579592&s2=3&p=infos::societe::articles::coronavirus_en_alsace_des_applaudissements_a_20_heures_pour_le_personnel_soignant_1584543419&x4=2&x5=[societe]&x6=[coronavirus_:_en_alsace,_des_applaudissements_a_20_heures_pour_le_personnel_soignant]&x7=5&x10=20200318&x11=[grand_est]&x12=[bas_rhin_67]&x14=[confinement_en_france|coronavirus_covid-19|solidarite]&x15=[d4e8df50]&x16=[texte]&x17=[france_bleu]&x18=20200319&di=&ac=&an=","https://logs1286.xiti.com","26-03-2020",04:44:32,"text/html",302,"XYFDR7HJUFD3YERINQIDBRE4W6JPD2UK","-",758378217,"BnF-32972-11-20200326042343-00266-ciblee_2020_fogg122.bnf.fr.warc.gz"
"86",160,"logs4.xiti.com/hit.xiti?s=375876&s2=16&p=france::diaporama_14665_finis-les-applaudissements-place-aux-rassemblements-les-soignants-dans-la-rue","https://logs4.xiti.com","18-06-2020",09:37:42,"text/html",302,"JERKOGRAVNIA6EK7PKUS4CK5GGTHGOZM","-",240344819,"BnF-33559-28-20200618092934-00002-ciblee_2020_fogg124.bnf.fr.warc.gz"
"87",161,"logs4.xiti.com/hit.xiti?s=493149&s2=1&p=contenu::cpa::aveyron-les-premiers-applaudissements-pour-le-personnel-soignant-se-font-entendre::8808951&di=&x1=web-noscript","https://logs4.xiti.com","20-03-2020",11:35:28,"text/html",302,"BF2DMM2HMX5QAFNMVEZYTMCPPBYVZRKG","-",292964834,"BnF-32950-28-20200320111953-00003-ciblee_2020_fogg120.bnf.fr.warc.gz"
"88",163,"logs4.xiti.com/hit.xiti?s=78691&s2=20&p=contenu::mdl::montpellier-des-applaudissements-en-hommage-aux-soignants-depuis-les-balcons-et-fenetres-de-lecusson::8809797&di=&x1=web-noscript","https://logs4.xiti.com","20-03-2020",11:48:10,"text/html",302,"WFUWQJPI4MMGX4LR5EQZPU3WBQLGFI3W","-",509595980,"BnF-32950-28-20200320111953-00003-ciblee_2020_fogg120.bnf.fr.warc.gz"
"89",165,"logs6.xiti.com/hit.xiti?s=292973&s2=160&p=actu::en-direct::5964513::corse-excede-par-le-bruit-lors-des-applaudissements-aux-soignants-un-agent-des-douanes-tire-en-lair.html&di=0&an=&ac=196407","https://logs6.xiti.com","18-04-2020",10:53:07,"text/html",302,"6WBDNNNI37PCKWWWIOKEIYNGRQ6DZ5XZ","-",56860976,"BnF-33130-28-20200418104959-00003-ciblee_2020_fogg134.bnf.fr.warc.gz"
"90",167,"m.20minutes.fr/france/diaporama-14665-finis-applaudissements-place-rassemblements-soignants-rue","https://m.20minutes.fr","18-06-2020",09:37:34,"text/html",200,"K4NYAESNFQGJ7ZPPV4OW6XMMO5Z4PMAO","-",237948633,"BnF-33559-28-20200618092934-00002-ciblee_2020_fogg124.bnf.fr.warc.gz"
"91",168,"m.20minutes.fr/france/diaporama-14665-photo-1133369-finis-applaudissements-place-rassemblements-soignants-rue","https://m.20minutes.fr","18-06-2020",09:37:41,"text/html",200,"M4KQOMKWF6YVQVCPKYYJ7KSWIAC6WSVR","-",240257097,"BnF-33559-28-20200618092934-00002-ciblee_2020_fogg124.bnf.fr.warc.gz"
"92",169,"m.20minutes.fr/france/diaporama-14665-photo-1133381-finis-applaudissements-place-rassemblements-soignants-rue","https://m.20minutes.fr","24-06-2020",15:52:57,"text/html",200,"VDVL3QHMNHZWZWODKDOZKINK5TRSLLPW","-",679415349,"BnF-33596-11-20200624155015-00021-ciblee_2020_fogg135.bnf.fr.warc.gz"
"93",170,"m.20minutes.fr/france/diaporama-14665-photo-1133401-finis-applaudissements-place-rassemblements-soignants-rue","https://m.20minutes.fr","18-06-2020",09:37:53,"text/html",200,"SYNSEQRPI5L7WWGW7IBMDZTDBYFW4XQN","-",243973794,"BnF-33559-28-20200618092934-00002-ciblee_2020_fogg124.bnf.fr.warc.gz"
"94",171,"m.huffingtonpost.fr/amp/entry/confinement-applaudissements-soignants_fr_5e71e7c1c5b63c3b6487500a/","https://m.huffingtonpost.fr","19-03-2020",11:17:00,"text/html",302,"XBMMWKBGC75QSVWZMAQVZDUE2HGPSCOG","-",31866156,"BnF-32943-28-20200319111510-00003-ciblee_2020_fogg128.bnf.fr.warc.gz"
"95",172,"m.huffingtonpost.fr/amp/entry/police-soignants-manifestations-applaudissements_fr_5ee91341c5b67912c6a84a78/","https://m.huffingtonpost.fr","17-06-2020",12:39:37,"text/html",302,"XBMMWKBGC75QSVWZMAQVZDUE2HGPSCOG","-",645307582,"BnF-33549-28-20200617121022-00003-ciblee_2020_fogg117.bnf.fr.warc.gz"
"96",173,"m.huffingtonpost.fr/entry/confinement-applaudissements-soignants_fr_5e71e7c1c5b63c3b6487500a","https://m.huffingtonpost.fr","19-03-2020",11:17:05,"text/html",302,"XBMMWKBGC75QSVWZMAQVZDUE2HGPSCOG","-",33990400,"BnF-32943-28-20200319111510-00003-ciblee_2020_fogg128.bnf.fr.warc.gz"
"97",174,"m.huffingtonpost.fr/entry/police-soignants-manifestations-applaudissements_fr_5ee91341c5b67912c6a84a78","https://m.huffingtonpost.fr","17-06-2020",12:39:40,"text/html",302,"XBMMWKBGC75QSVWZMAQVZDUE2HGPSCOG","-",646032258,"BnF-33549-28-20200617121022-00003-ciblee_2020_fogg117.bnf.fr.warc.gz"
"98",175,"m.jeuxvideo.com/forums/42-51-62950344-1-0-1-0-vous-avez-manque-combien-de-soirs-d-applaudissement-des-soignants.htm","http://m.jeuxvideo.com","01-05-2020",13:47:46,"text/html",200,"HCBZCP4WR3OHXZRQAILJHJ7PMAS3SCBW","-",194634590,"BnF-33205-12-20200501134408-00022-ciblee_2020_fogg132.bnf.fr.warc.gz"
"99",176,"m.jeuxvideo.com/forums/42-51-62950344-2-0-1-0-vous-avez-manque-combien-de-soirs-d-applaudissement-des-soignants.htm","http://m.jeuxvideo.com","01-05-2020",15:24:01,"text/html",200,"ZHQBA6XD5HDXEZA4GQAXC7IZ266PUMT2","-",632868385,"BnF-33205-12-20200501150723-00026-ciblee_2020_fogg132.bnf.fr.warc.gz"
"100",177,"m.jeuxvideo.com/forums/42-51-62950344-3-0-1-0-vous-avez-manque-combien-de-soirs-d-applaudissement-des-soignants.htm","http://m.jeuxvideo.com","01-05-2020",15:02:18,"text/html",200,"ZK2SXZE7E5TOKHNXNPSEZXSYAX2RAKMC","-",855034515,"BnF-33205-12-20200501144222-00025-ciblee_2020_fogg132.bnf.fr.warc.gz"
"101",185,"mesopinions.com/petition/sante/applaudissements-soignants-slogans-leurs-revendications-aux/90511","https://mesopinions.com","01-06-2020",16:13:29,"text/html",200,"SQG6TU22LTF6EMVAUSRWYKB7IJ5MB55X","-",57746899,"BnF-33417-12-20200601161016-00015-ciblee_2020_fogg137.bnf.fr.warc.gz"
"102",186,"midilibre.fr/2020/03/19/montpellier-des-applaudissements-en-hommage-aux-soignants-depuis-les-balcons-et-fenetres-de-lecusson,8809797.php","https://midilibre.fr","20-03-2020",11:47:45,"text/html",200,"GD76D3JQJS26RXARMKS5GT7C5ZABSHOL","-",502274051,"BnF-32950-28-20200320111953-00003-ciblee_2020_fogg120.bnf.fr.warc.gz"
"103",187,"midilibre.fr/amp/2020/03/19/montpellier-des-applaudissements-en-hommage-aux-soignants-depuis-les-balcons-et-fenetres-de-lecusson,8809797.php","https://midilibre.fr","20-03-2020",11:47:53,"text/html",200,"53VHIPWJKEMQAPUM22D7VRNHTOFD5UEO","-",504502929,"BnF-32950-28-20200320111953-00003-ciblee_2020_fogg120.bnf.fr.warc.gz"
"104",188,"nouvelobs.com/videos/x7ssy98.DMT/confinement-jour-2-des-applaudissements-nourris-pour-les-soignants-qui-font-face-au-coronavirus.html","https://nouvelobs.com","20-03-2020",11:30:49,"text/html",200,"ECSJ3FMJ6KTLKWHSLLBGZJRAIV35IJEZ","-",165307097,"BnF-32950-28-20200320111953-00003-ciblee_2020_fogg120.bnf.fr.warc.gz"
"105",189,"nvo.fr/ehpad-mieux-que-des-applaudissements-les-soignants-exigent-des-moyens/","https://nvo.fr","01-05-2020",15:52:01,"text/html",200,"EQRL5SKOEFNUNBQOQIDGGC4XFAL4KSSW","-",656882067,"BnF-33203-12-20200501153327-00030-ciblee_2020_fogg139.bnf.fr.warc.gz"
"106",190,"nvo.fr/ehpad-mieux-que-des-applaudissements-les-soignants-exigent-des-moyens/embed/","https://nvo.fr","01-06-2020",18:00:48,"text/html",200,"Y2BRX4J4U3DBUKAHNRXUG7AXAODQDTGV","-",202077040,"BnF-33417-12-20200601175127-00017-ciblee_2020_fogg137.bnf.fr.warc.gz"
"107",191,"objectifgard.com/2020/06/16/en-video-forces-de-police-et-personnels-soignants-echangent-des-applaudissements-a-nimes-ce-mardi/","https://objectifgard.com","02-07-2020",13:41:40,"text/html",200,"5ZWBGF34URLA4GYUAF7VFR4ZMQ7FSMU4","-",896032025,"BnF-33654-12-20200702130848-00212-ciblee_2020_fogg133.bnf.fr.warc.gz"
"108",192,"ouest-france.fr/bretagne/brest-29200/video-des-milliers-d-applaudissements-en-live-pour-les-soignants-brest-6871298","https://ouest-france.fr","17-06-2020",13:35:51,"text/html",200,"LVR44XAMRDQCOGUFCQBY7OXOCC7CXY3B","-",535517517,"BnF-33549-28-20200617130203-00004-ciblee_2020_fogg117.bnf.fr.warc.gz"
"109",193,"ouest-france.fr/bretagne/lesneven-29260/lesneven-les-voisins-saluent-les-soignants-en-chansons-et-par-leurs-applaudissements-6816119","https://ouest-france.fr","30-04-2020",05:36:36,"text/html",200,"B2EAAPEESWN6ZDY7Z4V6YHKVMPD4HTN6","-",105030705,"BnF-33178-11-20200430052547-00294-ciblee_2020_fogg129.bnf.fr.warc.gz"
"110",194,"ouest-france.fr/sante/virus/coronavirus/confinement/saumur-des-applaudissements-en-hommage-aux-soignants-fcaef5dc-6b5c-11ea-bc41-e9ce43d001b4","https://ouest-france.fr","22-03-2020",13:08:04,"text/html",200,"3TLOHH5GDZSJZAVTTNDBO5W7F7WHUKOE","-",614984856,"BnF-32964-28-20200322114257-00003-ciblee_2020_fogg129.bnf.fr.warc.gz"
"111",198,"profil.charentelibre.fr/login/?SSO_Context=https://www.charentelibre.fr/2020/03/19/applaudissements-aux-fenetres-pour-les-soignants-qui-le-fait-en-charente,3576637.php","https://profil.charentelibre.fr","24-03-2020",06:09:53,"text/html",200,"WTMIIKDHH5K3UKKYT27OIPLUK4ITVJWM","-",513990592,"BnF-32972-11-20200324060410-00082-ciblee_2020_fogg122.bnf.fr.warc.gz"
"112",199,"profil.sudouest.fr/login/?SSO_Context=https://www.sudouest.fr/2020/03/19/coronavirus-avec-leurs-applaudissements-les-francais-saluent-les-soignants-7344188-10861.php","https://profil.sudouest.fr","19-03-2020",09:46:10,"text/html",200,"L4CRZ3I2EF2U4LMII36ZVZKLJ3BQDPBU","-",845152825,"BnF-32943-28-20200319090145-00000-ciblee_2020_fogg128.bnf.fr.warc.gz"
"113",200,"profil.sudouest.fr/login/?SSO_Context=https://www.sudouest.fr/2020/03/21/videos-applaudissements-banderoles-repas-le-soutien-du-sud-ouest-au-personnel-soignant-7351671-2780.php","https://profil.sudouest.fr","24-03-2020",10:48:49,"text/html",200,"EFXVLRD4KAYLTYVT5P6XBUROCTV3KFPI","-",688774169,"BnF-32972-11-20200324104056-00106-ciblee_2020_fogg122.bnf.fr.warc.gz"
"114",201,"profil.sudouest.fr/login/?SSO_Context=https://www.sudouest.fr/2020/04/06/applaudissements-logements-transports-comment-les-soignants-du-pays-basque-sont-ils-aides-pendant-la-crise-sanitaire-7390198-4018.php","https://profil.sudouest.fr","06-04-2020",09:57:41,"text/html",200,"OPXLRFXP5XMA5MB3JWTZGL5LTGDF4AE7","-",152849517,"BnF-33066-28-20200406094819-00002-ciblee_2020_fogg120.bnf.fr.warc.gz"
"115",203,"public-api.wordpress.com/oembed/?format=xml&url=https://jeanyvesnau.com/2020/05/11/soignants-morts-du-covid-les-applaudissements-survivront-ils-longtemps-au-deconfinement/&for=wpcom-auto-discovery","https://public-api.wordpress.com","01-06-2020",16:28:40,"text/xml",200,"3JTXJLC3WFBJDIH7AZHF5E5CFEKML2AH","-",825560346,"BnF-33418-12-20200601160211-00015-ciblee_2020_fogg125.bnf.fr.warc.gz"
"116",204,"revolutionpermanente.fr/16-juin-Apres-les-applaudissements-manifester-aux-cotes-des-soignants","https://revolutionpermanente.fr","24-06-2020",14:12:00,"text/html",200,"AMUQCZDZ7EYSAOKR5VXOYFXOTMOHM4VS","-",41561208,"BnF-33596-11-20200624141133-00004-ciblee_2020_fogg135.bnf.fr.warc.gz"
"117",216,"sudouest.fr/2020/03/19/coronavirus-avec-leurs-applaudissements-les-francais-saluent-les-soignants-7344188-10861.amp.html","https://sudouest.fr","19-03-2020",09:46:37,"text/html",200,"CVYQMWUCYHITNMB63IHMZHQVNUKW4DR5","-",851385437,"BnF-32943-28-20200319090145-00000-ciblee_2020_fogg128.bnf.fr.warc.gz"
"118",217,"sudouest.fr/2020/03/19/coronavirus-avec-leurs-applaudissements-les-francais-saluent-les-soignants-7344188-10861.php","https://sudouest.fr","19-03-2020",09:46:09,"text/html",200,"P3EIMTYT3HGR33S23ZQENBMXKJIYKVHA","-",845015151,"BnF-32943-28-20200319090145-00000-ciblee_2020_fogg128.bnf.fr.warc.gz"
"119",218,"sudouest.fr/2020/03/21/videos-applaudissements-banderoles-repas-le-soutien-du-sud-ouest-au-personnel-soignant-7351671-2780.amp.html","https://sudouest.fr","24-03-2020",10:49:53,"text/html",200,"HC25GYGJYD3SE7F2FXQTGVQ2OLBB5EY5","-",735753065,"BnF-32972-11-20200324104056-00106-ciblee_2020_fogg122.bnf.fr.warc.gz"
"120",219,"sudouest.fr/2020/03/21/videos-applaudissements-banderoles-repas-le-soutien-du-sud-ouest-au-personnel-soignant-7351671-2780.php","https://sudouest.fr","24-03-2020",10:32:58,"text/html",200,"4ZT5LNWF7JORNIVQGCWQU3SJ3APSII6B","-",506679031,"BnF-32972-11-20200324102609-00105-ciblee_2020_fogg122.bnf.fr.warc.gz"
"121",220,"sudouest.fr/2020/04/06/applaudissements-logements-transports-comment-les-soignants-du-pays-basque-sont-ils-aides-pendant-la-crise-sanitaire-7390198-4018.amp.html","https://sudouest.fr","06-04-2020",09:57:58,"text/html",200,"2X7QLFWDUQXEXJQE3RLSPTUB3ARMFV3U","-",157849739,"BnF-33066-28-20200406094819-00002-ciblee_2020_fogg120.bnf.fr.warc.gz"
"122",221,"sudouest.fr/2020/04/06/applaudissements-logements-transports-comment-les-soignants-du-pays-basque-sont-ils-aides-pendant-la-crise-sanitaire-7390198-4018.php","https://sudouest.fr","06-04-2020",09:57:40,"text/html",200,"YY3YDR5MSWPT3OD6BPXBBNK5DKA2UDX6","-",152608291,"BnF-33066-28-20200406094819-00002-ciblee_2020_fogg120.bnf.fr.warc.gz"
"123",222,"tout-metz.com/applaudissements-personnel-soignant-metz-2020-5957.php","https://tout-metz.com","02-05-2020",21:31:40,"text/html",403,"6Q6SO4OV4JFGH3EWVY4WHCPUXZBC57OA","-",283254895,"BnF-33204-12-20200502212247-00180-ciblee_2020_fogg121.bnf.fr.warc.gz"
"124",224,"ultimedia.com/deliver/statistiques/widgetdisplay/?mdtk=01499695&zone=1&url=https://www.lavoixdunord.fr/732639/article/2020-03-28/hazebrouck-aussi-des-applaudissements-20-h-pour-remercier-les-soignants&autoplay=0&widget_type=unitaire&result=1&params={%22first_video_id%22:5232669,%22first_video_id_content%22:37,%22limit%22:1,%22nb_videos%22:1}","https://ultimedia.com","04-04-2020",11:19:32,"text/html",200,"3I42H3S6NNFQ2MSVX7XZKYAYSCX5QBYJ","-",664034237,"BnF-33025-11-20200404075341-00181-ciblee_2020_fogg136.bnf.fr.warc.gz"
"125",225,"video.lefigaro.fr/figaro/video/onapplaudit-des-applaudissements-chaque-soir-a-20h-pour-le-personnel-soignant/6142372930001/","http://video.lefigaro.fr","23-03-2020",20:54:50,"text/html",200,"DKPIQECIDMQ5A2VEV6FPQNOQA65BGW2K","-",67120638,"BnF-32972-11-20200323205228-00025-ciblee_2020_fogg122.bnf.fr.warc.gz"
"126",226,"video.lefigaro.fr/figaro/video/onapplaudit-j3-beaucoup-d-applaudissements-a-20h-pour-le-personnel-soignant/6142926351001/","http://video.lefigaro.fr","23-03-2020",19:45:30,"text/html",200,"WD2FYH75DYDR4KNYFP4MYVYZNJQJTRJD","-",627139398,"BnF-32972-11-20200323191402-00022-ciblee_2020_fogg122.bnf.fr.warc.gz"
"127",227,"vosgesmatin.fr/amp/edition-remiremont-gerardmer/2020/03/22/a-20h-une-minute-de-chaleureux-applaudissements-pour-les-soignants-a-remiremont","https://vosgesmatin.fr","23-03-2020",11:15:54,"text/html",200,"MGJ5BD7HQMBHTEZQSNZKHTUVWZQOTAR2","-",581607994,"BnF-32971-28-20200323104200-00002-ciblee_2020_fogg129.bnf.fr.warc.gz"
"128",228,"vosgesmatin.fr/edition-remiremont-gerardmer/2020/03/22/a-20h-une-minute-de-chaleureux-applaudissements-pour-les-soignants-a-remiremont","https://vosgesmatin.fr","23-03-2020",11:15:44,"text/html",200,"IXXLFZI2Z2Y22PGCZMB727MIKOW2LH4G","-",578536001,"BnF-32971-28-20200323104200-00002-ciblee_2020_fogg129.bnf.fr.warc.gz"
"129",230,"egora.fr/actus-pro/billet-de-blog/62382-que-reste-t-il-des-applaudissements-ode-aux-soignants-ces-heros","https://egora.fr","23-11-2020",14:43:46,"text/html",200,"BJI7HII4JDQPEFS7MHNMSV67UUNQ3AML","-",612077257,"BnF-35508-11-20201123144135-00056-ciblee_2020_fogg128.bnf.fr.warc.gz"
"130",231,"egora.fr/actus-pro/billet-de-blog/62382-que-reste-t-il-des-applaudissements-ode-aux-soignants-ces-heros?page=0,1","https://egora.fr","23-11-2020",14:44:21,"text/html",200,"3GKWI3RH6HDIM6ZMNFX6DVAQJ5J6FHEA","-",752414124,"BnF-35508-11-20201123144135-00056-ciblee_2020_fogg128.bnf.fr.warc.gz"
"131",232,"facebook.com/socialistesAN/videos/les-soignants-m%C3%A9ritent-davantage-que-des-applaudissements-question-de-guillaume-/395423511863661/?__so__=permalink&__rv__=related_videos","https://facebook.com","10-11-2020",19:59:31,"text/html",302,"3I42H3S6NNFQ2MSVX7XZKYAYSCX5QBYJ","-",102964399,"BnF-35435-11-20201110195227-00146-ciblee_2020_fogg126.bnf.fr.warc.gz"
"132",233,"larepubliquedespyrenees.fr/2020/11/27/devant-l-hopital-de-pau-des-applaudissements-pour-les-soignants,2762443.amp.html","https://larepubliquedespyrenees.fr","30-11-2020",12:06:53,"text/html",200,"VE2MPGX4R7XO3QZUSC344RZPFZ2XVBLI","-",695091888,"BnF-35544-11-20201130120413-00003-ciblee_2020_fogg125.bnf.fr.warc.gz"
"133",234,"larepubliquedespyrenees.fr/2020/11/27/devant-l-hopital-de-pau-des-applaudissements-pour-les-soignants,2762443.php","https://larepubliquedespyrenees.fr","30-11-2020",12:06:48,"text/html",200,"CUDWAGMOIBZJ3UWDKGYNKXGVUCO2FMFG","-",649643408,"BnF-35544-11-20201130120413-00003-ciblee_2020_fogg125.bnf.fr.warc.gz"
"134",235,"legorafi.fr/2020/09/23/covid19-le-conseil-de-defense-recommande-le-retour-des-applaudissements-des-soignants-tous-les-soirs-a-20h/","http://legorafi.fr","05-10-2020",10:41:28,"text/html",200,"PJSZFAQTN7ZGMOBWULAZKD2APKB4J3TN","-",297116902,"BnF-34212-12-20201005103823-00006-ciblee_2020_fogg126.bnf.fr.warc.gz"
"135",236,"legorafi.fr/2020/09/23/covid19-le-conseil-de-defense-recommande-le-retour-des-applaudissements-des-soignants-tous-les-soirs-a-20h/embed/","http://legorafi.fr","05-10-2020",12:57:41,"text/html",200,"7F6G7JPV7RGERYJJELGPU2KO5PUPZDQQ","-",158757477,"BnF-34212-12-20201005125421-00025-ciblee_2020_fogg126.bnf.fr.warc.gz"
"136",237,"legorafi.fr/2020/10/29/jean-castex-devoilera-ce-soir-le-nouveau-protocole-dapplaudissements-aux-soignants/","http://legorafi.fr","01-11-2020",10:24:15,"text/html",200,"O6CUZUNQOBXAZD72A7I7R6MUSFQ4ZBSQ","-",691946121,"BnF-35391-12-20201101101240-00002-ciblee_2020_fogg120.bnf.fr.warc.gz"
"137",238,"legorafi.fr/2020/10/29/jean-castex-devoilera-ce-soir-le-nouveau-protocole-dapplaudissements-aux-soignants/embed/","http://legorafi.fr","01-11-2020",11:18:29,"text/html",200,"AWUTVUJZR267LD4DRGIUNPR6OUK6PWVC","-",528998606,"BnF-35391-12-20201101110422-00009-ciblee_2020_fogg120.bnf.fr.warc.gz"
"138",240,"legorafi.fr/wp-json/oembed/1.0/embed?url=http://www.legorafi.fr/2020/09/23/covid19-le-conseil-de-defense-recommande-le-retour-des-applaudissements-des-soignants-tous-les-soirs-a-20h/&format=xml","http://legorafi.fr","05-10-2020",10:41:36,"text/xml",200,"QXTOLZ32OTD4AY5JBXKF6RARGQYOUZVI","-",303872183,"BnF-34212-12-20201005103823-00006-ciblee_2020_fogg126.bnf.fr.warc.gz"
"139",242,"legorafi.fr/wp-json/oembed/1.0/embed?url=http://www.legorafi.fr/2020/10/29/jean-castex-devoilera-ce-soir-le-nouveau-protocole-dapplaudissements-aux-soignants/&format=xml","http://legorafi.fr","01-11-2020",10:24:22,"text/xml",200,"V5TI5DEN6G4UDGZM2P3ZKS26WXY55K3Q","-",697676240,"BnF-35391-12-20201101101240-00002-ciblee_2020_fogg120.bnf.fr.warc.gz"
"140",252,"profil.larepubliquedespyrenees.fr/inscription/?SSO_Context=https://www.larepubliquedespyrenees.fr/2020/11/27/devant-l-hopital-de-pau-des-applaudissements-pour-les-soignants,2762443.php","https://profil.larepubliquedespyrenees.fr","30-11-2020",12:26:44,"text/html",200,"3HHVGHFSMYEER44OIDU7TY7QZNQLXXCD","-",507180881,"BnF-35544-11-20201130122437-00008-ciblee_2020_fogg125.bnf.fr.warc.gz"
"141",253,"profil.larepubliquedespyrenees.fr/login/?SSO_Context=https://www.larepubliquedespyrenees.fr/2020/11/27/devant-l-hopital-de-pau-des-applaudissements-pour-les-soignants,2762443.php","https://profil.larepubliquedespyrenees.fr","30-11-2020",12:07:05,"text/html",200,"WFRAB4IBJ5IXKBLGAXRTBQY34UCAHPXZ","-",720760394,"BnF-35544-11-20201130120413-00003-ciblee_2020_fogg125.bnf.fr.warc.gz"
"142",254,"profil.larepubliquedespyrenees.fr/logout.php/?SSO_Context=https://www.larepubliquedespyrenees.fr/2020/11/27/devant-l-hopital-de-pau-des-applaudissements-pour-les-soignants,2762443.php","https://profil.larepubliquedespyrenees.fr","30-11-2020",12:26:48,"text/html",302,"3I42H3S6NNFQ2MSVX7XZKYAYSCX5QBYJ","-",525346715,"BnF-35544-11-20201130122437-00008-ciblee_2020_fogg125.bnf.fr.warc.gz"
"143",255,"yves.brette.biz/post/2020/03/27/Changement-d-heure-2020-:-dimanche-29-mars-%C3%A0-20H-Vous-devrez-avancer-vos-applaudissements-aux-soignants-et-travailleurs-non-confin%C3%A9s-d-une-heure-en-raison-du-passage-%C3%A0-l-heure-d-%C3%A9t%C3%A9","https://yves.brette.biz","31-08-2020",13:48:36,"text/html",200,"GQGR6YQ65ZVGJ5FPPYY3BE2OWQ74QLTJ","-",338039392,"BnF-34027-11-20200831134659-00073-ciblee_2020_fogg131.bnf.fr.warc.gz"
"144",257,"bruno-de-hogues.com/covid-19/applaudissements-pour-rendre-hommage-aux-personnels-soignants/","https://bruno-de-hogues.com","11-10-2020",15:37:41,"text/html",200,"F6TJOF4P46FEBKCK6TPST2XFJWCI3LSI","-",705499576,"BnF-34377-60-20201011151411-00049-large_2020_01_fogg166.bnf.fr.warc.gz"
"145",259,"bruno-de-hogues.com/wp-json/oembed/1.0/embed?url=https://www.bruno-de-hogues.com/covid-19/applaudissements-pour-rendre-hommage-aux-personnels-soignants/&format=xml","https://bruno-de-hogues.com","11-10-2020",15:38:04,"text/xml",200,"5Q3M77NBSREEJY2ZFIZ3DSZ743SCO4TK","-",228579687,"BnF-34377-60-20201011152955-00052-large_2020_01_fogg166.bnf.fr.warc.gz"
"146",261,"chezchris.fr/lecture/applaudissements-pour-les-soignants/","http://chezchris.fr","13-10-2020",02:25:25,"text/html",403,"HP3BKZBZT776UEMILMLZFOZ3R4A4HS3C","-",547034256,"BnF-34427-60-20201013021458-00063-large_2020_01_fogg132.bnf.fr.warc.gz"
"147",276,"enlargeyourparis.fr/societe/deux-mois-dapplaudissements-aux-soignants-vus-par-la-photographe-jeromine-derigny","https://enlargeyourparis.fr","10-10-2020",03:21:02,"text/html",200,"J65G6KHI4JM3FB5NWEZCIPRNCKWD4GXW","-",50774035,"BnF-34268-60-20201010031826-00311-large_2020_01_fogg162.bnf.fr.warc.gz"
"148",277,"fake-news-media.fr/3/article-202/discours-presidentiel-minutes-applaudissement-maximum-pour-le-personnel-soignant","https://fake-news-media.fr","16-10-2020",16:22:40,"text/html",200,"AO7TT5VW2ECE7AIYNH54OO4OYTEAHQ3T","-",90819089,"BnF-34588-60-20201016161938-00048-large_2020_01_fogg136.bnf.fr.warc.gz"
"149",279,"laprovince.info/applaudissement-manifestation-soignants/","https://laprovince.info","22-10-2020",05:44:08,"text/html",200,"JAXCFQEBMBCMB3KNNBU6NIXNDI55WJHJ","-",830623851,"BnF-34771-60-20201022051337-00197-large_2020_01_fogg134.bnf.fr.warc.gz"
"150",281,"laprovince.info/wp-json/oembed/1.0/embed?url=https://laprovince.info/applaudissement-manifestation-soignants/&format=xml","https://laprovince.info","22-10-2020",05:44:31,"text/xml",200,"NL2C6HKICWIOSNWYI2NL4HFMYARWOHR3","-",489865175,"BnF-34771-60-20201022051334-00196-large_2020_01_fogg134.bnf.fr.warc.gz"
"151",282,"lechodestraboules.info/2020/05/08/la-stagiaire-aide-soignante-de-lhopital-edouard-herriot-sort-enfin-du-decouvert-grace-aux-applaudissements/","https://lechodestraboules.info","22-10-2020",05:29:06,"text/html",200,"QSV6KALCKVXIJVHKDE6IVQ3SOLX2WFMF","-",33663903,"BnF-34785-60-20201022052757-00033-large_2020_01_fogg149.bnf.fr.warc.gz"
"152",283,"lechodestraboules.info/2020/05/08/la-stagiaire-aide-soignante-de-lhopital-edouard-herriot-sort-enfin-du-decouvert-grace-aux-applaudissements/embed/","https://lechodestraboules.info","22-10-2020",15:22:11,"text/html",200,"2F45RDDVPDQSK6ZZHHNU4WTVP4LTLZBY","-",30813365,"BnF-34785-60-20201022152013-00107-large_2020_01_fogg149.bnf.fr.warc.gz"
"153",285,"lechodestraboules.info/wp-json/oembed/1.0/embed?url=https://www.lechodestraboules.info/2020/05/08/la-stagiaire-aide-soignante-de-lhopital-edouard-herriot-sort-enfin-du-decouvert-grace-aux-applaudissements/&format=xml","https://lechodestraboules.info","22-10-2020",05:29:39,"text/xml",200,"DBKQZSSSB53MVUB3FWZ7RN7DALBI7YAU","-",908589115,"BnF-34785-60-20201022045957-00029-large_2020_01_fogg149.bnf.fr.warc.gz"
"154",286,"merci-a-vous.fr/reseaux-sociaux-cat/merciauxsoignants-applaudissements-a-20h-bd-pereire-75017-geoffroyboulard-fx/732/","https://merci-a-vous.fr","25-10-2020",04:38:38,"text/html",200,"2QKOD63YTCKU4QJSWM55K6A625V77EZA","-",623080611,"BnF-34880-60-20201025041450-00081-large_2020_01_fogg162.bnf.fr.warc.gz"
"155",287,"qg.media/emission/apres-les-applaudissements-coups-de-matraque-pour-les-soignants/","https://qg.media","29-10-2020",16:44:13,"text/html",200,"2NFI3M3DQ3TKRNMCCJRAQN2HNLHJGMH7","-",205071505,"BnF-35035-60-20201029163746-00084-large_2020_01_fogg163.bnf.fr.warc.gz"
"156",288,"qg.media/emission/apres-les-applaudissements-coups-de-matraque-pour-les-soignants/embed/","https://qg.media","29-10-2020",18:09:23,"text/html",200,"SFKL7JS6OC26IHHGXPSNCWA6XQGLCEJF","-",345599321,"BnF-35035-60-20201029175629-00092-large_2020_01_fogg163.bnf.fr.warc.gz"
"157",290,"qg.media/wp-json/oembed/1.0/embed?url=https://qg.media/emission/apres-les-applaudissements-coups-de-matraque-pour-les-soignants/&format=xml","https://qg.media","29-10-2020",16:44:36,"text/xml",200,"PXCPR65WPDV5PFUVH74YAM7BGQDVFJ65","-",333421325,"BnF-35035-60-20201029163327-00082-large_2020_01_fogg163.bnf.fr.warc.gz"
"158",291,"qg.media/wp-login.php?redirect_to=https://qg.media/emission/apres-les-applaudissements-coups-de-matraque-pour-les-soignants/","https://qg.media","29-10-2020",18:09:04,"text/html",200,"A3Z5S2RYQL2YOLB3B6OSNSDHKHNB4EA5","-",876316230,"BnF-35035-60-20201029172620-00089-large_2020_01_fogg163.bnf.fr.warc.gz"
"159",296,"solidairesparis.org/le-16-juin-apres-les-applaudissements-soutenons-les-soignant-es","http://solidairesparis.org","02-11-2020",02:31:46,"text/html",429,"CYRB5PSNYQ32DXGQOTXRFBQ34AXW5K6B","-",754251675,"BnF-35143-60-20201102020304-00108-large_2020_01_fogg156.bnf.fr.warc.gz"
"160",307,"amp.ouest-france.fr/ile-de-france/verneuil-sur-seine-78480/video-120-danseurs-des-yvelines-reunis-dans-une-video-pour-remercier-les-soignants-6838927","https://amp.ouest-france.fr","01-06-2020",20:12:32,"text/html",200,"QDP2GI5ESTEQBAFIDTSJXZPJYSPQ2WFQ","-",519847054,"BnF-33370-11-20200601175441-00653-ciblee_2020_fogg115.bnf.fr.warc.gz"
"161",308,"amp.ouest-france.fr/provence-alpes-cote-dazur/nice-06000/video-les-soignants-de-l-hopital-de-nice-dansent-le-madison-pour-remercier-la-population-6820894","https://amp.ouest-france.fr","04-05-2020",03:18:16,"text/html",200,"34KG5RPYJEYH622IDB6AMTKTCFUGINFN","-",25785809,"BnF-33204-12-20200504031739-00245-ciblee_2020_fogg121.bnf.fr.warc.gz"
"162",309,"arts-in-the-city.com/2020/04/17/les-danseurs-du-ballet-de-lopera-de-paris-remercient-les-soignants-dans-une-video-realisee-par-cedric-klapisch/","https://arts-in-the-city.com","04-06-2020",09:24:39,"text/html",200,"3LOCW7YAM22HLS4QB4RW47KK6W76JGQ7","-",409515276,"BnF-33419-12-20200604085733-00132-ciblee_2020_fogg139.bnf.fr.warc.gz"
"163",321,"coronavirus.politologue.com/actualite/actu.a-beauvais-les-soignants-dansent-pour-faire-retomber-la-pression-du-coronavirus.nqwz","https://coronavirus.politologue.com","01-06-2020",13:53:08,"text/html",200,"4AM3OGIOWJEE2TF5URQBE5BC772T7Q3D","-",654554735,"BnF-33422-12-20200601123915-00007-ciblee_2020_fogg127.bnf.fr.warc.gz"
"164",333,"ledauphine.com/amp/culture-loisirs/2020/07/21/montelimar-une-troupe-de-danseurs-prepare-un-hommage-aux-soignants","https://ledauphine.com","27-07-2020",18:01:17,"text/html",200,"3Q4LBCSESZNPDYIW67KEWYQLMNL4LHJF","-",618584377,"BnF-33839-11-20200727175839-00113-ciblee_2020_fogg124.bnf.fr.warc.gz"
"165",334,"ledauphine.com/culture-loisirs/2020/07/21/montelimar-une-troupe-de-danseurs-prepare-un-hommage-aux-soignants","https://ledauphine.com","27-07-2020",18:01:14,"text/html",200,"6JJ47L7JNNMRTW62NBQZJVWKC3T2GC2B","-",614550829,"BnF-33839-11-20200727175839-00113-ciblee_2020_fogg124.bnf.fr.warc.gz"
"166",336,"objectifgard.com/2020/04/30/video-a-lehpad-du-ch-duzes-soignants-et-residents-dansent/","https://objectifgard.com","02-05-2020",20:07:01,"text/html",200,"POGNK3GVZTTN3U32W2LYHBYLNGVTCA47","-",728737647,"BnF-33205-12-20200502195900-00158-ciblee_2020_fogg132.bnf.fr.warc.gz"
"167",338,"objectifgard.com/wp-json/oembed/1.0/embed?url=https://www.objectifgard.com/2020/04/30/video-a-lehpad-du-ch-duzes-soignants-et-residents-dansent/&format=xml","https://objectifgard.com","02-05-2020",20:08:02,"text/xml",200,"FIXWFUANBBUNB3TMCETZZVZ7JHPZJI6Q","-",870378259,"BnF-33205-12-20200502195900-00158-ciblee_2020_fogg132.bnf.fr.warc.gz"
"168",339,"ouest-france.fr/bretagne/vitre-35500/en-images-vitre-qu-il-pleuve-ou-qu-il-vente-ils-dansent-chaque-soir-pour-les-soignants-6822053","https://ouest-france.fr","05-05-2020",15:12:38,"text/html",200,"TIMZCRA2ONEJLSZU4VCSBIY2642D36YG","-",568705034,"BnF-33204-12-20200505135719-00280-ciblee_2020_fogg121.bnf.fr.warc.gz"
"169",340,"ouest-france.fr/ile-de-france/verneuil-sur-seine-78480/video-120-danseurs-des-yvelines-reunis-dans-une-video-pour-remercier-les-soignants-6838927","https://ouest-france.fr","01-06-2020",19:55:44,"text/html",200,"PT7KESIUL6IDY4BEPJE5W24DJE47RMQS","-",475344220,"BnF-33370-11-20200601175441-00653-ciblee_2020_fogg115.bnf.fr.warc.gz"
"170",341,"ouest-france.fr/provence-alpes-cote-dazur/nice-06000/video-les-soignants-de-l-hopital-de-nice-dansent-le-madison-pour-remercier-la-population-6820894","https://ouest-france.fr","04-05-2020",03:18:15,"text/html",200,"4X7P2LGMTIL6IFJSRWCI6PCZGKXRF57I","-",24986685,"BnF-33204-12-20200504031739-00245-ciblee_2020_fogg121.bnf.fr.warc.gz"
"171",343,"petit-bulletin.fr/saint-etienne/theatre-danse-article-67704-La+Comedie+en+l+honneur+des+soignants.html","http://petit-bulletin.fr","13-07-2020",14:30:47,"text/html",200,"7DMRDBWYSFFJUBHCQKYBJL5BQYAFJWAF","-",180919356,"BnF-33761-11-20200713143018-00076-ciblee_2020_fogg137.bnf.fr.warc.gz"
"172",344,"petit-bulletin.fr/saint-etienne/theatre-danse-articleamp-67704-La+Comedie+en+l+honneur+des+soignants.html","http://petit-bulletin.fr","13-07-2020",14:30:50,"text/html",200,"UEM34XJOAGDWMYBCCYCRQTPTAOHY5EQS","-",187571683,"BnF-33761-11-20200713143018-00076-ciblee_2020_fogg137.bnf.fr.warc.gz"
"173",348,"psycom.org/Actualites/A-lire-a-voir-a-ecouter/France-Culture-Prendre-soin-des-soignantes-et-des-soignants-par-la-danse","http://psycom.org","01-07-2020",11:34:45,"text/html",200,"UR7XU6THV2HG2XJSVIOMPYVVK7ZXQ5O3","-",815035105,"BnF-33652-12-20200701113129-00028-ciblee_2020_fogg136.bnf.fr.warc.gz"
"174",361,"estrepublicain.fr/amp/culture-loisirs/2020/10/03/policiers-et-soignants-dansent-sur-jerusalema-place-stanislas","https://estrepublicain.fr","02-11-2020",12:41:55,"text/html",200,"FD4QQDU56GPTR6LZ7XANGGHYV5LRSEIR","-",55043319,"BnF-35398-11-20201102124151-00015-ciblee_2020_fogg128.bnf.fr.warc.gz"
"175",362,"estrepublicain.fr/culture-loisirs/2020/10/03/policiers-et-soignants-dansent-sur-jerusalema-place-stanislas","https://estrepublicain.fr","02-11-2020",12:41:49,"text/html",200,"IMSDM2W6OM2LMHMMRHARN6DUDIOJFQPB","-",978219046,"BnF-35398-11-20201102123747-00014-ciblee_2020_fogg128.bnf.fr.warc.gz"
"176",363,"policeetrealites.com/2020/10/03/%F0%9F%87%AB%F0%9F%87%B7-nancy-quand-policiers-et-soignants-dansent-sur-jerusalema-place-stanislas/","https://policeetrealites.com","02-11-2020",12:39:36,"text/html",200,"VQHCQTQ4JYKJ5MXAID2VUURB3W4BGZZM","-",312732233,"BnF-35398-11-20201102123747-00014-ciblee_2020_fogg128.bnf.fr.warc.gz"
"177",364,"policeetrealites.com/2020/10/03/%F0%9F%87%AB%F0%9F%87%B7-nancy-quand-policiers-et-soignants-dansent-sur-jerusalema-place-stanislas/amp/","https://policeetrealites.com","02-11-2020",12:39:49,"text/html",200,"2UOWAJSASVJHYRT6QVSTA6SFAGS6AG4S","-",347658971,"BnF-35398-11-20201102123747-00014-ciblee_2020_fogg128.bnf.fr.warc.gz"
"178",365,"policeetrealites.com/2020/10/03/%F0%9F%87%AB%F0%9F%87%B7-nancy-quand-policiers-et-soignants-dansent-sur-jerusalema-place-stanislas/img_6696/","https://policeetrealites.com","03-11-2020",10:27:40,"text/html",200,"JJ2QSI7T5W2B6NUFEZ4W4NGIV5JQKSUE","-",671737063,"BnF-35398-11-20201103100115-00117-ciblee_2020_fogg128.bnf.fr.warc.gz"
"179",376,"public-api.wordpress.com/oembed/?format=xml&url=https://policeetrealites.com/2020/10/03/%f0%9f%87%ab%f0%9f%87%b7-nancy-quand-policiers-et-soignants-dansent-sur-jerusalema-place-stanislas/&for=wpcom-auto-discovery","https://public-api.wordpress.com","02-11-2020",12:39:44,"text/xml",200,"X6F5QVMBMW4PAPKC5KS4A7SZPPAOSBOU","-",334883391,"BnF-35398-11-20201102123747-00014-ciblee_2020_fogg128.bnf.fr.warc.gz"
"180",377,"public-api.wordpress.com/oembed/?format=xml&url=https://policeetrealites.com/2020/10/03/%f0%9f%87%ab%f0%9f%87%b7-nancy-quand-policiers-et-soignants-dansent-sur-jerusalema-place-stanislas/img_6696/&for=wpcom-auto-discovery","https://public-api.wordpress.com","03-11-2020",10:27:44,"text/xml",200,"6TOVDYUZ7ENH7VQQ7XNWRALTQC62IDWN","-",673583292,"BnF-35398-11-20201103100115-00117-ciblee_2020_fogg128.bnf.fr.warc.gz"
"181",378,"arifts.fr/formations/developper-vos-competences/formations-travail-social/mettre-en-uvre-des-techniques-educatives/entry-72-le-mouvement-danse-comme-mediation-dans-la-relation-educative-et-soignante.html","https://arifts.fr","09-10-2020",16:11:26,"text/html",200,"KSDGVD6D667BZJ2LEWNYXJZNAEHY3XKF","-",629841163,"BnF-34295-60-20201009154541-00056-large_2020_01_fogg159.bnf.fr.warc.gz"
"182",379,"citoyens-et-francais.fr/2019/12/policiers-militaires-danseurs-de-ballets-aides-soignants-les-negociations-avec-les-syndicats-tournent-a-la-foire-aux-exceptions-la-p","http://citoyens-et-francais.fr","13-10-2020",07:00:10,"text/html",200,"U56WAWHDQ7VOXABQLUGVQTYJAIYPR4BJ","-",467574960,"BnF-34436-60-20201013065405-00055-large_2020_01_fogg165.bnf.fr.warc.gz"
"183",382,"mnh-mag.mnh.fr/article/patients-soignants-et-aidants-entrent-dans-la-danse","https://mnh-mag.mnh.fr","25-10-2020",07:09:44,"text/html",200,"2VMGP2YEMMX2TV4BMXKOHALJD7LUKKPF","-",668099361,"BnF-34894-60-20201025064232-00034-large_2020_01_fogg173.bnf.fr.warc.gz"
"184",383,"pariszigzag.fr/paris-au-quotidien/les-danseurs-de-lopera-de-paris-dansent-pour-les-soignants","https://pariszigzag.fr","27-10-2020",19:44:58,"text/html",200,"IIZDOFJLUCDDDKICS7KNTTONX43DM22J","-",821894191,"BnF-34975-60-20201027192003-00073-large_2020_01_fogg176.bnf.fr.warc.gz"
"185",385,"plouasne.fr/les-sapeurs-pompiers-de-plouasne-dansent-le-madison-pour-encourager-les-soignants/","https://plouasne.fr","28-10-2020",21:08:55,"text/html",200,"4BVPVVDKD3JDN4JODRUKVTBBIZHXP5K7","-",218979321,"BnF-35008-60-20201028203753-00059-large_2020_01_fogg157.bnf.fr.warc.gz"
"186",387,"plouasne.fr/wp-json/oembed/1.0/embed?url=https://plouasne.fr/les-sapeurs-pompiers-de-plouasne-dansent-le-madison-pour-encourager-les-soignants/&format=xml","https://plouasne.fr","28-10-2020",21:10:15,"text/xml",200,"KVI2A7RLQGKALNDKUU4VNQ5ZCX5YMVQK","-",868537880,"BnF-35008-60-20201028200130-00056-large_2020_01_fogg157.bnf.fr.warc.gz"
